CONTROLUNIT/Tests/ControlUnit.vcd
$date
	Thu Jun 04 12:19:51 2026
$end
$version
	Icarus Verilog
$end
$timescale
	1ns
$end
$scope module ControlUnit_tb $end
$var wire 1 ! outReset $end
$var wire 1 " outHoldExecute $end
$var wire 1 # outHoldDecode $end
$var wire 1 $ outHoldDataMemory $end
$var wire 1 % outFlushExecute $end
$var wire 1 & outFlushDecode $end
$var wire 1 ' outFlushDataMemory $end
$var reg 1 ( clk $end
$var reg 1 ) inHoldFromDataMemory $end
$var reg 1 * inHoldFromExecute $end
$var reg 1 + inJMPSignal $end
$var reg 16 , inNewInstructionAddress [15:0] $end
$var reg 1 - reset $end
$scope module dut $end
$var wire 1 ( clk $end
$var wire 1 ) inHoldFromDataMemory $end
$var wire 1 * inHoldFromExecute $end
$var wire 1 + inJMPSignal $end
$var wire 16 . inNewInstructionAddress [15:0] $end
$var wire 1 - reset $end
$var reg 3 / currentState [2:0] $end
$var reg 3 0 nextState [2:0] $end
$var reg 1 ' outFlushDataMemory $end
$var reg 1 & outFlushDecode $end
$var reg 1 % outFlushExecute $end
$var reg 1 $ outHoldDataMemory $end
$var reg 1 # outHoldDecode $end
$var reg 1 " outHoldExecute $end
$var reg 16 1 outInstructionAddress [15:0] $end
$var reg 1 ! outReset $end
$upscope $end
$upscope $end
$enddefinitions $end
#0
$dumpvars
bx 1
bx 0
bx /
bx .
1-
bx ,
x+
x*
x)
0(
x'
x&
x%
x$
x#
x"
x!
$end
#2
0'
0$
0%
0"
0&
0#
1!
b1 0
b0 /
b0 1
1(
#4
0(
0-
#6
0!
b10 0
b1 /
1(
#8
0(
b11111111 ,
b11111111 .
1+
#10
b101 0
b10 1
b10 /
1(
#12
0(
#14
1'
1%
b11111111 1
b101 /
1(
#16
b10 0
0(
0+
#18
0'
0%
1"
1#
b11 /
b11 0
1(
1*
#20
0(
#22
0"
0#
b100000001 1
b10 /
b10 0
1(
0*
#24
0(
#26
1$
1"
1#
b100 /
b100 0
1(
1)
#28
0(
#30
0$
0"
0#
b100000011 1
b10 /
b10 0
1(
0)
#32
0(
#34
b100000101 1
1(
