PIPELINE/Tests/DE_EX.vcd
$date
	Fri May 01 20:37:27 2026
$end
$version
	Icarus Verilog
$end
$timescale
	1ns
$end
$scope module DE_EX_tb $end
$var wire 1 ! controlHold $end
$var reg 1 " clk $end
$var reg 1 # hold $end
$var reg 16 $ instruction [15:0] $end
$scope module dut $end
$var wire 1 " clk $end
$var wire 1 # hold $end
$var wire 16 % instruction [15:0] $end
$var wire 4 & localWriteBackDst [3:0] $end
$var wire 16 ' localSrc2Data [15:0] $end
$var wire 16 ( localSrc1Data [15:0] $end
$var wire 4 ) localOperation [3:0] $end
$var wire 8 * localImmediate [7:0] $end
$var wire 1 + localEnableWrite $end
$var wire 4 , localDstAddress [3:0] $end
$var wire 16 - localALUresult [15:0] $end
$var wire 1 ! controlHold $end
$scope module decode $end
$var wire 1 " clk $end
$var wire 4 . dstAddress [3:0] $end
$var wire 1 / flush $end
$var wire 1 # hold $end
$var wire 16 0 instruction [15:0] $end
$var wire 4 1 operation [3:0] $end
$var wire 4 2 writeBackDst [3:0] $end
$var wire 16 3 src2Data [15:0] $end
$var wire 16 4 src1Data [15:0] $end
$var wire 4 5 localSrc2Address [3:0] $end
$var wire 4 6 localSrc1Address [3:0] $end
$var wire 4 7 localOperation [3:0] $end
$var wire 8 8 localImmediateOperand [7:0] $end
$var wire 4 9 localDstAddress [3:0] $end
$var wire 8 : immediateOperandOutput [7:0] $end
$var wire 1 + enableWrite $end
$var wire 16 ; dataToStore [15:0] $end
$scope module pipelineRegister $end
$var wire 1 " clk $end
$var wire 1 / flush $end
$var wire 1 # hold $end
$var wire 16 < instruction [15:0] $end
$var reg 4 = dstAddress [3:0] $end
$var reg 8 > immediateOperand [7:0] $end
$var reg 4 ? operation [3:0] $end
$var reg 4 @ src1Address [3:0] $end
$var reg 4 A src2Address [3:0] $end
$upscope $end
$scope module registerBlock $end
$var wire 1 " clk $end
$var wire 8 B immediateOperandInput [7:0] $end
$var wire 4 C src1Address [3:0] $end
$var wire 4 D src2Address [3:0] $end
$var wire 4 E writeBackDst [3:0] $end
$var wire 1 + enableWrite $end
$var wire 16 F dataToStore [15:0] $end
$var reg 8 G immediateOperandOutput [7:0] $end
$var reg 16 H src1Data [15:0] $end
$var reg 16 I src2Data [15:0] $end
$upscope $end
$upscope $end
$scope module execute $end
$var wire 1 " clk $end
$var wire 1 # hold $end
$var wire 4 J inputDstAddress [3:0] $end
$var wire 8 K inputImmediate [7:0] $end
$var wire 4 L inputOperation [3:0] $end
$var wire 16 M inputSrc1 [15:0] $end
$var wire 16 N inputSrc2 [15:0] $end
$var wire 4 O writeBackDst [3:0] $end
$var wire 16 P out [15:0] $end
$var wire 4 Q operation [3:0] $end
$var wire 16 R localSrc2Data [15:0] $end
$var wire 16 S localSrc1Data [15:0] $end
$var wire 4 T localOperation [3:0] $end
$var wire 8 U localImmediate [7:0] $end
$var wire 4 V localDstAddress [3:0] $end
$var wire 1 + enableWrite $end
$var wire 1 ! controlHold $end
$scope module alu $end
$var wire 1 " clk $end
$var wire 1 + enableWrite $end
$var wire 4 W outputOperation [3:0] $end
$var wire 16 X subOut [15:0] $end
$var wire 1 Y subCout $end
$var wire 16 Z remainder [15:0] $end
$var wire 16 [ quotient [15:0] $end
$var wire 4 \ operation [3:0] $end
$var wire 8 ] immediate [7:0] $end
$var wire 32 ^ flags [31:0] $end
$var wire 1 _ divFinished $end
$var wire 16 ` d2 [15:0] $end
$var wire 16 a d1 [15:0] $end
$var wire 4 b controlSignals [3:0] $end
$var wire 1 ! controlHold $end
$var wire 16 c constOut [15:0] $end
$var wire 16 d addOut [15:0] $end
$var wire 1 e addCout $end
$var reg 1 f addCarry $end
$var reg 16 g out [15:0] $end
$var reg 1 h subCarry $end
$scope module add16 $end
$var wire 1 i cin $end
$var wire 16 j s [15:0] $end
$var wire 1 e cout $end
$var wire 16 k b [15:0] $end
$var wire 16 l a [15:0] $end
$scope module b0 $end
$var wire 4 m a [3:0] $end
$var wire 4 n b [3:0] $end
$var wire 1 i blockCin $end
$var wire 1 o blockCout $end
$var wire 1 p c1 $end
$var wire 1 q c2 $end
$var wire 1 r c3 $end
$var wire 1 s g0 $end
$var wire 1 t g1 $end
$var wire 1 u g2 $end
$var wire 1 v g3 $end
$var wire 1 w p0 $end
$var wire 1 x p1 $end
$var wire 1 y p2 $end
$var wire 1 z p3 $end
$var wire 4 { s [3:0] $end
$upscope $end
$scope module b1 $end
$var wire 4 | a [3:0] $end
$var wire 4 } b [3:0] $end
$var wire 1 o blockCin $end
$var wire 1 ~ blockCout $end
$var wire 1 !" c1 $end
$var wire 1 "" c2 $end
$var wire 1 #" c3 $end
$var wire 1 $" g0 $end
$var wire 1 %" g1 $end
$var wire 1 &" g2 $end
$var wire 1 '" g3 $end
$var wire 1 (" p0 $end
$var wire 1 )" p1 $end
$var wire 1 *" p2 $end
$var wire 1 +" p3 $end
$var wire 4 ," s [3:0] $end
$upscope $end
$scope module b2 $end
$var wire 4 -" a [3:0] $end
$var wire 4 ." b [3:0] $end
$var wire 1 ~ blockCin $end
$var wire 1 /" blockCout $end
$var wire 1 0" c1 $end
$var wire 1 1" c2 $end
$var wire 1 2" c3 $end
$var wire 1 3" g0 $end
$var wire 1 4" g1 $end
$var wire 1 5" g2 $end
$var wire 1 6" g3 $end
$var wire 1 7" p0 $end
$var wire 1 8" p1 $end
$var wire 1 9" p2 $end
$var wire 1 :" p3 $end
$var wire 4 ;" s [3:0] $end
$upscope $end
$scope module b3 $end
$var wire 4 <" a [3:0] $end
$var wire 4 =" b [3:0] $end
$var wire 1 /" blockCin $end
$var wire 1 e blockCout $end
$var wire 1 >" c1 $end
$var wire 1 ?" c2 $end
$var wire 1 @" c3 $end
$var wire 1 A" g0 $end
$var wire 1 B" g1 $end
$var wire 1 C" g2 $end
$var wire 1 D" g3 $end
$var wire 1 E" p0 $end
$var wire 1 F" p1 $end
$var wire 1 G" p2 $end
$var wire 1 H" p3 $end
$var wire 4 I" s [3:0] $end
$upscope $end
$upscope $end
$scope module const16 $end
$var wire 16 J" out [15:0] $end
$var wire 8 K" a [7:0] $end
$upscope $end
$scope module control $end
$var wire 1 " clk $end
$var wire 4 L" operation [3:0] $end
$var wire 1 _ divFinished $end
$var reg 4 M" controlSignals [3:0] $end
$var reg 1 N" multiCycle $end
$var reg 2 O" nextState [1:0] $end
$var reg 2 P" state [1:0] $end
$upscope $end
$scope module div16 $end
$var wire 1 " clk $end
$var wire 16 Q" remainder [15:0] $end
$var wire 1 R" reset $end
$var wire 16 S" subResult [15:0] $end
$var wire 16 T" subInput [15:0] $end
$var wire 16 U" quotient [15:0] $end
$var wire 10 V" localSignals [9:0] $end
$var wire 1 _ finished $end
$var wire 16 W" divisor [15:0] $end
$var wire 16 X" dividend [15:0] $end
$scope module control $end
$var wire 1 Y" MSB $end
$var wire 1 " clk $end
$var wire 1 R" reset $end
$var wire 4 Z" localCounter [3:0] $end
$var wire 1 _ finished $end
$var reg 5 [" counter [4:0] $end
$var reg 5 \" nextState [4:0] $end
$var reg 10 ]" signals [9:0] $end
$var reg 5 ^" state [4:0] $end
$upscope $end
$scope module divReg $end
$var wire 1 _" clk $end
$var wire 1 `" enableWriteHigh $end
$var wire 1 a" reset $end
$var wire 1 b" shift $end
$var wire 16 c" writeLowData [15:0] $end
$var wire 16 d" writeHighData [15:0] $end
$var wire 16 e" q [15:0] $end
$var reg 32 f" dividend [31:0] $end
$upscope $end
$scope module quoReg $end
$var wire 1 g" clk $end
$var wire 1 h" digit $end
$var wire 16 i" q [15:0] $end
$var wire 1 j" reset $end
$var wire 4 k" selection [3:0] $end
$var reg 16 l" quotient [15:0] $end
$upscope $end
$scope module sub $end
$var wire 16 m" a [15:0] $end
$var wire 16 n" b [15:0] $end
$var wire 1 o" cin $end
$var wire 16 p" s [15:0] $end
$var wire 1 q" cout $end
$scope module b0 $end
$var wire 4 r" a [3:0] $end
$var wire 4 s" b [3:0] $end
$var wire 1 o" blockCin $end
$var wire 1 t" blockCout $end
$var wire 1 u" c1 $end
$var wire 1 v" c2 $end
$var wire 1 w" c3 $end
$var wire 1 x" g0 $end
$var wire 1 y" g1 $end
$var wire 1 z" g2 $end
$var wire 1 {" g3 $end
$var wire 1 |" p0 $end
$var wire 1 }" p1 $end
$var wire 1 ~" p2 $end
$var wire 1 !# p3 $end
$var wire 4 "# s [3:0] $end
$upscope $end
$scope module b1 $end
$var wire 4 ## a [3:0] $end
$var wire 4 $# b [3:0] $end
$var wire 1 t" blockCin $end
$var wire 1 %# blockCout $end
$var wire 1 &# c1 $end
$var wire 1 '# c2 $end
$var wire 1 (# c3 $end
$var wire 1 )# g0 $end
$var wire 1 *# g1 $end
$var wire 1 +# g2 $end
$var wire 1 ,# g3 $end
$var wire 1 -# p0 $end
$var wire 1 .# p1 $end
$var wire 1 /# p2 $end
$var wire 1 0# p3 $end
$var wire 4 1# s [3:0] $end
$upscope $end
$scope module b2 $end
$var wire 4 2# a [3:0] $end
$var wire 4 3# b [3:0] $end
$var wire 1 %# blockCin $end
$var wire 1 4# blockCout $end
$var wire 1 5# c1 $end
$var wire 1 6# c2 $end
$var wire 1 7# c3 $end
$var wire 1 8# g0 $end
$var wire 1 9# g1 $end
$var wire 1 :# g2 $end
$var wire 1 ;# g3 $end
$var wire 1 <# p0 $end
$var wire 1 =# p1 $end
$var wire 1 ># p2 $end
$var wire 1 ?# p3 $end
$var wire 4 @# s [3:0] $end
$upscope $end
$scope module b3 $end
$var wire 4 A# a [3:0] $end
$var wire 4 B# b [3:0] $end
$var wire 1 4# blockCin $end
$var wire 1 q" blockCout $end
$var wire 1 C# c1 $end
$var wire 1 D# c2 $end
$var wire 1 E# c3 $end
$var wire 1 F# g0 $end
$var wire 1 G# g1 $end
$var wire 1 H# g2 $end
$var wire 1 I# g3 $end
$var wire 1 J# p0 $end
$var wire 1 K# p1 $end
$var wire 1 L# p2 $end
$var wire 1 M# p3 $end
$var wire 4 N# s [3:0] $end
$upscope $end
$upscope $end
$upscope $end
$scope module sub16 $end
$var wire 16 O# b [15:0] $end
$var wire 1 P# cin $end
$var wire 16 Q# s [15:0] $end
$var wire 1 Y cout $end
$var wire 16 R# a [15:0] $end
$scope module b0 $end
$var wire 4 S# a [3:0] $end
$var wire 4 T# b [3:0] $end
$var wire 1 P# blockCin $end
$var wire 1 U# blockCout $end
$var wire 1 V# c1 $end
$var wire 1 W# c2 $end
$var wire 1 X# c3 $end
$var wire 1 Y# g0 $end
$var wire 1 Z# g1 $end
$var wire 1 [# g2 $end
$var wire 1 \# g3 $end
$var wire 1 ]# p0 $end
$var wire 1 ^# p1 $end
$var wire 1 _# p2 $end
$var wire 1 `# p3 $end
$var wire 4 a# s [3:0] $end
$upscope $end
$scope module b1 $end
$var wire 4 b# a [3:0] $end
$var wire 4 c# b [3:0] $end
$var wire 1 U# blockCin $end
$var wire 1 d# blockCout $end
$var wire 1 e# c1 $end
$var wire 1 f# c2 $end
$var wire 1 g# c3 $end
$var wire 1 h# g0 $end
$var wire 1 i# g1 $end
$var wire 1 j# g2 $end
$var wire 1 k# g3 $end
$var wire 1 l# p0 $end
$var wire 1 m# p1 $end
$var wire 1 n# p2 $end
$var wire 1 o# p3 $end
$var wire 4 p# s [3:0] $end
$upscope $end
$scope module b2 $end
$var wire 4 q# a [3:0] $end
$var wire 4 r# b [3:0] $end
$var wire 1 d# blockCin $end
$var wire 1 s# blockCout $end
$var wire 1 t# c1 $end
$var wire 1 u# c2 $end
$var wire 1 v# c3 $end
$var wire 1 w# g0 $end
$var wire 1 x# g1 $end
$var wire 1 y# g2 $end
$var wire 1 z# g3 $end
$var wire 1 {# p0 $end
$var wire 1 |# p1 $end
$var wire 1 }# p2 $end
$var wire 1 ~# p3 $end
$var wire 4 !$ s [3:0] $end
$upscope $end
$scope module b3 $end
$var wire 4 "$ a [3:0] $end
$var wire 4 #$ b [3:0] $end
$var wire 1 s# blockCin $end
$var wire 1 Y blockCout $end
$var wire 1 $$ c1 $end
$var wire 1 %$ c2 $end
$var wire 1 &$ c3 $end
$var wire 1 '$ g0 $end
$var wire 1 ($ g1 $end
$var wire 1 )$ g2 $end
$var wire 1 *$ g3 $end
$var wire 1 +$ p0 $end
$var wire 1 ,$ p1 $end
$var wire 1 -$ p2 $end
$var wire 1 .$ p3 $end
$var wire 4 /$ s [3:0] $end
$upscope $end
$upscope $end
$upscope $end
$scope module register $end
$var wire 1 " clk $end
$var wire 1 # hold $end
$var wire 4 0$ inputDstAddress [3:0] $end
$var wire 8 1$ inputImmediate [7:0] $end
$var wire 4 2$ inputOperation [3:0] $end
$var wire 16 3$ inputSrc1 [15:0] $end
$var wire 16 4$ inputSrc2 [15:0] $end
$var wire 4 5$ operation [3:0] $end
$var wire 16 6$ src1Data [15:0] $end
$var wire 16 7$ src2Data [15:0] $end
$var wire 8 8$ immediate [7:0] $end
$var wire 4 9$ dstAddress [3:0] $end
$var reg 4 :$ localDstAddress [3:0] $end
$var reg 8 ;$ localImmediate [7:0] $end
$var reg 4 <$ localOperation [3:0] $end
$var reg 16 =$ localSrc1 [15:0] $end
$var reg 16 >$ localSrc2 [15:0] $end
$upscope $end
$upscope $end
$upscope $end
$upscope $end
$enddefinitions $end
#0
$dumpvars
bx >$
bx =$
bx <$
bx ;$
bx :$
bx 9$
bx 8$
bx 7$
bx 6$
bx 5$
bx 4$
bx 3$
bx 2$
bx 1$
bx 0$
bx /$
x.$
x-$
x,$
x+$
x*$
x)$
x($
x'$
x&$
x%$
x$$
bx #$
bx "$
bx !$
x~#
x}#
x|#
x{#
xz#
xy#
xx#
xw#
xv#
xu#
xt#
xs#
bx r#
bx q#
bx p#
xo#
xn#
xm#
xl#
xk#
xj#
xi#
xh#
xg#
xf#
xe#
xd#
bx c#
bx b#
bx a#
x`#
x_#
x^#
x]#
x\#
x[#
xZ#
xY#
xX#
xW#
xV#
xU#
bx T#
bx S#
bx R#
bx Q#
1P#
bx O#
bx N#
xM#
xL#
xK#
xJ#
xI#
xH#
xG#
xF#
xE#
xD#
xC#
bx B#
bx A#
bx @#
x?#
x>#
x=#
x<#
x;#
x:#
x9#
x8#
x7#
x6#
x5#
x4#
bx 3#
bx 2#
bx 1#
x0#
x/#
x.#
x-#
x,#
x+#
x*#
x)#
x(#
x'#
x&#
x%#
bx $#
bx ##
bx "#
x!#
x~"
x}"
x|"
x{"
xz"
xy"
xx"
xw"
xv"
xu"
xt"
bx s"
bx r"
xq"
bx p"
1o"
bx n"
bx m"
bx l"
bx k"
xj"
bx i"
xh"
xg"
bx f"
bx e"
bx d"
bx c"
xb"
xa"
x`"
x_"
bx ^"
bx ]"
b0 \"
bx ["
bx Z"
xY"
bx X"
bx W"
bx V"
bx U"
bx T"
bx S"
xR"
bx Q"
bx P"
b11 O"
0N"
bx M"
bx L"
bx K"
bx J"
bx I"
xH"
xG"
xF"
xE"
xD"
xC"
xB"
xA"
x@"
x?"
x>"
bx ="
bx <"
bx ;"
x:"
x9"
x8"
x7"
x6"
x5"
x4"
x3"
x2"
x1"
x0"
x/"
bx ."
bx -"
bx ,"
x+"
x*"
x)"
x("
x'"
x&"
x%"
x$"
x#"
x""
x!"
x~
bx }
bx |
bx {
xz
xy
xx
xw
xv
xu
xt
xs
xr
xq
xp
xo
bx n
bx m
bx l
bx k
bx j
0i
xh
bx g
xf
xe
bx d
bx c
bx b
bx a
bx `
x_
bx000000000000000000000000000000 ^
bx ]
bx \
bx [
bx Z
xY
bx X
bx W
bx V
bx U
bx T
bx S
bx R
bx Q
bx P
bx O
bx N
bx M
bx L
bx K
bx J
bx I
bx H
bx G
bx F
bx E
bx D
bx C
bx B
bx A
bx @
bx ?
bx >
bx =
b1010 <
bx ;
bx :
bx 9
bx 8
bx 7
bx 6
bx 5
bx 4
bx 3
bx 2
bx 1
b1010 0
z/
bx .
bx -
bx ,
x+
bx *
bx )
bx (
bx '
bx &
b1010 %
b1010 $
x#
0"
x!
$end
#2
b0 k"
1j"
0g"
0b"
0`"
1a"
0_"
0R"
0!
b100010000 V"
b100010000 ]"
b0 b
b0 M"
b1 \"
b1010 *
b1010 :
b1010 G
b1010 K
b1010 1$
b1010 8
b1010 >
b1010 B
b1010 5
b1010 A
b1010 D
b0 6
b0 @
b0 C
b0 ,
b0 .
b0 J
b0 0$
b0 9
b0 =
b0 )
b0 1
b0 L
b0 2$
b0 7
b0 ?
b11 P"
0_
b0 ^"
1"
#4
0"
b1111111111111111 $
b1111111111111111 %
b1111111111111111 0
b1111111111111111 <
#6
0x"
0y"
0z"
0{"
0)#
0*#
0+#
0,#
08#
09#
0:#
0;#
0F#
0G#
0H#
0I#
b0 r"
b0 ##
b0 2#
b0 A#
b0 Z
b0 Q"
b0 T"
b0 e"
b0 m"
b0 [
b0 U"
b0 i"
b0 l"
b0xxxxxxxxxxxxxxxx f"
1+
1g"
1_"
b10 \"
b1100110000 V"
b1100110000 ]"
b1010 -
b1010 ;
b1010 F
b1010 P
b1010 g
b11111111 *
b11111111 :
b11111111 G
b11111111 K
b11111111 1$
b1 ^"
b1010 c
b1010 J"
b1010 U
b1010 ]
b1010 K"
b1010 8$
b1010 ;$
b0 &
b0 2
b0 E
b0 O
b0 V
b0 9$
b0 :$
b0 Q
b0 W
b0 T
b0 \
b0 L"
b0 5$
b0 <$
b11111111 8
b11111111 >
b11111111 B
b1111 5
b1111 A
b1111 D
b1111 6
b1111 @
b1111 C
b1111 ,
b1111 .
b1111 J
b1111 0$
b1111 9
b1111 =
b1111 )
b1111 1
b1111 L
b1111 2$
b1111 7
b1111 ?
1"
#8
0"
b100000011 $
b100000011 %
b100000011 0
b100000011 <
#10
0+
bx k"
0j"
0g"
1b"
0a"
0_"
bx -
bx ;
bx F
bx P
bx g
b100xxxx V"
b100xxxx ]"
b11 *
b11 :
b11 G
b11 K
b11 1$
b1010 (
b1010 4
b1010 H
b1010 M
b1010 3$
b11 \"
b11 8
b11 >
b11 B
b11 5
b11 A
b11 D
b0 6
b0 @
b0 C
b1 ,
b1 .
b1 J
b1 0$
b1 9
b1 =
b0 )
b0 1
b0 L
b0 2$
b0 7
b0 ?
b1111111111111111 c
b1111111111111111 J"
b11111111 U
b11111111 ]
b11111111 K"
b11111111 8$
b11111111 ;$
b1111 &
b1111 2
b1111 E
b1111 O
b1111 V
b1111 9$
b1111 :$
b1111 Q
b1111 W
b1111 T
b1111 \
b1111 L"
b1111 5$
b1111 <$
b10 ^"
1"
#12
0"
b1111111111111111 $
b1111111111111111 %
b1111111111111111 0
b1111111111111111 <
#14
xx"
b0x r"
b0x Z
b0x Q"
b0x T"
b0x e"
b0x m"
b0xxxxxxxxxxxxxxxx0 f"
0p
0'$
0($
0)$
0*$
0w#
0x#
0y#
0z#
0h#
0i#
0j#
0k#
0Y#
0[#
0A"
0B"
0C"
0D"
03"
04"
05"
06"
0$"
0%"
0&"
0'"
0s
0u
1+
1_"
b0 "$
b0 q#
b0 b#
b1010 S#
b0 <"
b0 -"
b0 |
b1010 m
b100 \"
b100100xxxx V"
b100100xxxx ]"
b11 -
b11 ;
b11 F
b11 P
b11 g
b11111111 *
b11111111 :
b11111111 G
b11111111 K
b11111111 1$
bx (
bx 4
bx H
bx M
bx 3$
b11 ^"
b11 c
b11 J"
b11 U
b11 ]
b11 K"
b11 8$
b11 ;$
b1010 S
b1010 a
b1010 l
b1010 X"
b1010 c"
b1010 R#
b1010 6$
b1010 =$
b1 &
b1 2
b1 E
b1 O
b1 V
b1 9$
b1 :$
b0 Q
b0 W
b0 T
b0 \
b0 L"
b0 5$
b0 <$
b11111111 8
b11111111 >
b11111111 B
b1111 5
b1111 A
b1111 D
b1111 6
b1111 @
b1111 C
b1111 ,
b1111 .
b1111 J
b1111 0$
b1111 9
b1111 =
b1111 )
b1111 1
b1111 L
b1111 2$
b1111 7
b1111 ?
1"
#16
0"
b1001000000001 $
b1001000000001 %
b1001000000001 0
b1001000000001 <
#18
xp
x'$
x($
x)$
x*$
xw#
xx#
xy#
xz#
xh#
xi#
xj#
xk#
xY#
x[#
xA"
xB"
xC"
xD"
x3"
x4"
x5"
x6"
x$"
x%"
x&"
x'"
xs
xu
0+
0b"
0_"
bx "$
bx q#
bx b#
bx S#
bx <"
bx -"
bx |
bx m
bx -
bx ;
bx F
bx P
bx g
b0xxxx V"
b0xxxx ]"
b1 *
b1 :
b1 G
b1 K
b1 1$
b11 '
b11 3
b11 I
b11 N
b11 4$
b1010 (
b1010 4
b1010 H
b1010 M
b1010 3$
b111 \"
b1 8
b1 >
b1 B
b1 5
b1 A
b1 D
b0 6
b0 @
b0 C
b10 ,
b10 .
b10 J
b10 0$
b10 9
b10 =
b1 )
b1 1
b1 L
b1 2$
b1 7
b1 ?
b1111111111111111 c
b1111111111111111 J"
b11111111 U
b11111111 ]
b11111111 K"
b11111111 8$
b11111111 ;$
bx S
bx a
bx l
bx X"
bx c"
bx R#
bx 6$
bx =$
b1111 &
b1111 2
b1111 E
b1111 O
b1111 V
b1111 9$
b1111 :$
b1111 Q
b1111 W
b1111 T
b1111 \
b1111 L"
b1111 5$
b1111 <$
b100 ^"
1"
#20
0"
b1111111111111111 $
b1111111111111111 %
b1111111111111111 0
b1111111111111111 <
#22
0h"
1Y"
0C#
0D#
0E#
0q"
1$$
1%$
1&$
1Y
b1111 N#
b0 /$
05#
06#
07#
04#
1t#
1u#
1v#
1s#
b1111 @#
b0 !$
0&#
0'#
0(#
0%#
1e#
1f#
1g#
1d#
b1111 1#
b11111111111111xx S"
b11111111111111xx d"
b11111111111111xx p"
b11xx "#
b0 p#
0w"
0t"
0v"
0X#
1U#
0W#
0V#
b0 I"
0@"
0e
0?"
b0 ;"
02"
0/"
01"
b0 ,"
0#"
0~
0""
0r
0o
b111 X
b111 Q#
b111 a#
0>"
00"
0!"
b1101 -
b1101 ;
b1101 F
b1101 P
b1101 g
1q
0x"
0}"
1~"
1!#
1-#
1.#
1/#
10#
1<#
1=#
1>#
1?#
1J#
1K#
1L#
1M#
0]#
1^#
0Z#
1_#
0`#
1\#
1l#
1m#
1n#
1o#
1{#
1|#
1}#
1~#
1+$
1,$
1-$
1.$
b1101 d
b1101 j
b1101 {
0p
1+
0'$
0($
0)$
0*$
0w#
0x#
0y#
0z#
0h#
0i#
0j#
0k#
0Y#
0[#
0E"
0A"
0F"
0B"
0G"
0C"
0H"
0D"
07"
03"
08"
04"
09"
05"
0:"
06"
0("
0$"
0)"
0%"
0*"
0&"
0+"
0'"
1w
0s
0x
1t
0y
0u
1z
0v
b1100 s"
b1111 $#
b1111 3#
b1111 B#
b1100 T#
b1111 c#
b1111 r#
b1111 #$
1`"
b1111111111111100 n"
b0 ="
b0 ."
b0 }
b11 n
b1111111111111100 O#
b0 "$
b0 q#
b0 b#
b1010 S#
b0 <"
b0 -"
b0 |
b1010 m
b1000 \"
b1000xxxx V"
b1000xxxx ]"
b11111111 *
b11111111 :
b11111111 G
b11111111 K
b11111111 1$
bx '
bx 3
bx I
bx N
bx 4$
bx (
bx 4
bx H
bx M
bx 3$
b111 ^"
b1 c
b1 J"
b1 U
b1 ]
b1 K"
b1 8$
b1 ;$
b11 R
b11 `
b11 k
b11 W"
b11 7$
b11 >$
b1010 S
b1010 a
b1010 l
b1010 X"
b1010 c"
b1010 R#
b1010 6$
b1010 =$
b10 &
b10 2
b10 E
b10 O
b10 V
b10 9$
b10 :$
b1 Q
b1 W
b1 T
b1 \
b1 L"
b1 5$
b1 <$
b11111111 8
b11111111 >
b11111111 B
b1111 5
b1111 A
b1111 D
b1111 6
b1111 @
b1111 C
b1111 ,
b1111 .
b1111 J
b1111 0$
b1111 9
b1111 =
b1111 )
b1111 1
b1111 L
b1111 2$
b1111 7
b1111 ?
1"
#24
0"
b100001100000001 $
b100001100000001 %
b100001100000001 0
b100001100000001 <
#26
xy"
xz"
x{"
x)#
x*#
x+#
x,#
x8#
x9#
x:#
x;#
xF#
xG#
xH#
xI#
b11xx r"
b1111 ##
b1111 2#
b1111 A#
b11111111111111xx Z
b11111111111111xx Q"
b11111111111111xx T"
b11111111111111xx e"
b11111111111111xx m"
b11111111111111xxxxxxxxxxxxxxxxx0 f"
xC#
xD#
xE#
xq"
x5#
x6#
x7#
x4#
x&#
x'#
x(#
x%#
xw"
xt"
xv"
xh"
xY"
xY
x%$
x&$
xs#
xu#
xv#
xd#
xf#
xg#
xU#
xW#
xX#
xe
x@"
x/"
x2"
x~
x#"
xo
xr
bx "#
bx 1#
bx @#
bx S"
bx d"
bx p"
bx N#
x$$
xt#
xe#
xV#
x?"
x1"
x""
xq
xx"
x}"
x~"
x!#
x-#
x.#
x/#
x0#
x<#
x=#
x>#
x?#
xJ#
xK#
xL#
xM#
xY#
xZ#
bx /$
bx !$
bx p#
bx X
bx Q#
bx a#
x>"
bx I"
x0"
bx ;"
x!"
bx ,"
xp
bx d
bx j
bx {
0+
x+$
x'$
x,$
x($
x-$
x)$
x.$
x*$
x{#
xw#
x|#
xx#
x}#
xy#
x~#
xz#
xl#
xh#
xm#
xi#
xn#
xj#
xo#
xk#
x]#
x^#
x_#
x[#
x`#
x\#
xE"
xA"
xF"
xB"
xG"
xC"
xH"
xD"
x7"
x3"
x8"
x4"
x9"
x5"
x:"
x6"
x("
x$"
x)"
x%"
x*"
x&"
x+"
x'"
xw
xs
xx
xt
xy
xu
xz
xv
bx s"
bx $#
bx 3#
bx B#
bx T#
bx c#
bx r#
bx #$
1g"
1_"
bx n"
bx ="
bx ."
bx }
bx n
bx O#
bx "$
bx q#
bx b#
bx S#
bx <"
bx -"
bx |
bx m
bx -
bx ;
bx F
bx P
bx g
b101010xxxx V"
b101010xxxx ]"
b1 *
b1 :
b1 G
b1 K
b1 1$
b11 '
b11 3
b11 I
b11 N
b11 4$
b1010 (
b1010 4
b1010 H
b1010 M
b1010 3$
b10 \"
b1 8
b1 >
b1 B
b1 5
b1 A
b1 D
b0 6
b0 @
b0 C
b11 ,
b11 .
b11 J
b11 0$
b11 9
b11 =
b100 )
b100 1
b100 L
b100 2$
b100 7
b100 ?
b1111111111111111 c
b1111111111111111 J"
b11111111 U
b11111111 ]
b11111111 K"
b11111111 8$
b11111111 ;$
bx R
bx `
bx k
bx W"
bx 7$
bx >$
bx S
bx a
bx l
bx X"
bx c"
bx R#
bx 6$
bx =$
b1111 &
b1111 2
b1111 E
b1111 O
b1111 V
b1111 9$
b1111 :$
b1111 Q
b1111 W
b1111 T
b1111 \
b1111 L"
b1111 5$
b1111 <$
b1000 ^"
1"
#28
0"
#30
1$$
1%$
1&$
1Y
b0 /$
1t#
1u#
1v#
1s#
0h"
b0 !$
1Y"
1e#
1f#
1g#
1d#
b1xxx "#
b0 p#
1t"
1w"
1%#
1(#
14#
17#
1q"
1E#
0X#
1U#
0W#
b1111 1#
1'#
b1111 @#
16#
b1111111111111xxx S"
b1111111111111xxx d"
b1111111111111xxx p"
b1111 N#
1D#
0V#
b0 I"
0@"
0e
0?"
b0 ;"
02"
0/"
01"
b0 ,"
0#"
0~
0""
0r
0o
1&#
15#
1C#
b111 X
b111 Q#
b111 a#
0>"
00"
0!"
1q
0x"
0y"
0~"
1z"
0!#
1{"
0-#
1)#
0.#
1*#
0/#
1+#
00#
1,#
0<#
18#
0=#
19#
0>#
1:#
0?#
1;#
0J#
1F#
0K#
1G#
0L#
1H#
0M#
1I#
0]#
1^#
0Z#
1_#
0`#
1\#
1l#
1m#
1n#
1o#
1{#
1|#
1}#
1~#
1+$
1,$
1-$
1.$
b1101 d
b1101 j
b1101 {
0p
0'$
0($
0)$
0*$
0w#
0x#
0y#
0z#
0h#
0i#
0j#
0k#
0Y#
0[#
0E"
0A"
0F"
0B"
0G"
0C"
0H"
0D"
07"
03"
08"
04"
09"
05"
0:"
06"
0("
0$"
0)"
0%"
0*"
0&"
0+"
0'"
1w
0s
0x
1t
0y
0u
1z
0v
1+
b1100 s"
b1111 $#
b1111 3#
b1111 B#
b1100 T#
b1111 c#
b1111 r#
b1111 #$
0g"
1b"
0`"
0_"
b1111111111111100 n"
b0 ="
b0 ."
b0 }
b11 n
b1111111111111100 O#
b0 "$
b0 q#
b0 b#
b1010 S#
b0 <"
b0 -"
b0 |
b1010 m
b0 O"
b11 \"
b100xxxx V"
b100xxxx ]"
b0 -
b0 ;
b0 F
b0 P
b0 g
1N"
b10 ^"
b1 c
b1 J"
b1 U
b1 ]
b1 K"
b1 8$
b1 ;$
b11 R
b11 `
b11 k
b11 W"
b11 7$
b11 >$
b1010 S
b1010 a
b1010 l
b1010 X"
b1010 c"
b1010 R#
b1010 6$
b1010 =$
b11 &
b11 2
b11 E
b11 O
b11 V
b11 9$
b11 :$
b100 Q
b100 W
b100 T
b100 \
b100 L"
b100 5$
b100 <$
1"
#32
0"
#34
b111111111111xxxx S"
b111111111111xxxx d"
b111111111111xxxx p"
bx "#
xw"
x~"
xz"
b1xxx r"
b1111111111111xxx Z
b1111111111111xxx Q"
b1111111111111xxx T"
b1111111111111xxx e"
b1111111111111xxx m"
b1111111111111xxxxxxxxxxxxxxxxx00 f"
1_"
1R"
1!
b100100xxxx V"
b100100xxxx ]"
b1 O"
b1100 b
b1100 M"
b100 \"
b0 P"
b11 ^"
1"
#36
0"
#38
b0 k"
1j"
0b"
1a"
0_"
0R"
b1111 Z"
b100010000 V"
b100010000 ]"
b1 \"
b100 b
b100 M"
b10 O"
b11111 ["
b0 ^"
b1 P"
1"
#40
0"
