Tests/ControlUnit_Fetch.vcd
$date
	Sat May 16 15:33:08 2026
$end
$version
	Icarus Verilog
$end
$timescale
	1ns
$end
$scope module ControlUnit_Fetch_tb $end
$var wire 1 ! resetSigFromControl $end
$var wire 16 " outInstructionAddress [15:0] $end
$var wire 16 # instruction [15:0] $end
$var wire 1 $ holdSigFromControl $end
$var reg 1 % changeToNewInstructionAddress $end
$var reg 1 & clk $end
$var reg 1 ' holdSignalFromALU $end
$var reg 16 ( inNewInstructionAddress [15:0] $end
$var reg 1 ) reset $end
$scope module fetch $end
$var wire 16 * outInstruction [15:0] $end
$var wire 16 + inAddress [15:0] $end
$scope module instructionMemory $end
$var wire 16 , inAddress [15:0] $end
$var reg 16 - outInstruction [15:0] $end
$upscope $end
$upscope $end
$scope module unit $end
$var wire 1 % changeToNewInstructionAddress $end
$var wire 1 & clk $end
$var wire 1 ' holdSignalFromALU $end
$var wire 16 . inNewInstructionAddress [15:0] $end
$var wire 16 / outInstructionAddress [15:0] $end
$var wire 1 ) reset $end
$var reg 16 0 currentInstructionAddress [15:0] $end
$var reg 3 1 currentState [2:0] $end
$var reg 1 $ holdSigFromControl $end
$var reg 3 2 nextState [2:0] $end
$var reg 1 ! resetSigFromControl $end
$upscope $end
$upscope $end
$enddefinitions $end
#0
$dumpvars
bx 2
bx 1
bx 0
bx /
bx .
bx -
bx ,
bx +
bx *
1)
bx (
x'
0&
x%
x$
bx #
bx "
x!
$end
#2
b1 2
1!
0$
b0 1
b0 "
b0 +
b0 ,
b0 /
b0 0
1&
#4
0&
0)
#6
0!
b10 2
b1 1
1&
#8
0&
#10
b1010 #
b1010 *
b1010 -
b10 "
b10 +
b10 ,
b10 /
b10 0
b10 1
1&
#12
0&
#14
b100000001 #
b100000001 *
b100000001 -
b100 "
b100 +
b100 ,
b100 /
b100 0
1&
#16
0&
#18
b1001000000001 #
b1001000000001 *
b1001000000001 -
b110 "
b110 +
b110 ,
b110 /
b110 0
1&
#20
0&
#22
bx #
bx *
bx -
b1000 "
b1000 +
b1000 ,
b1000 /
b1000 0
1&
#24
b100 2
0&
b10 (
b10 .
1%
#26
b1010 #
b1010 *
b1010 -
b10 "
b10 +
b10 ,
b10 /
b10 0
b100 1
1&
#28
b10 2
0&
0%
