CPU/Control.vcd
$date
	Sat Mar 07 18:00:22 2026
$end
$version
	Icarus Verilog
$end
$timescale
	1ns
$end
$scope module Control_tb $end
$var wire 16 ! instruction [15:0] $end
$var reg 1 " clk $end
$var reg 1 # reset $end
$scope module dut $end
$var wire 1 " clk $end
$var wire 1 # reset $end
$var wire 16 $ instruction [15:0] $end
$var reg 16 % address [15:0] $end
$scope module memory $end
$var wire 16 & address [15:0] $end
$var reg 16 ' instruction [15:0] $end
$upscope $end
$upscope $end
$upscope $end
$enddefinitions $end
#0
$dumpvars
bx '
bx &
bx %
bx $
1#
0"
bx !
$end
#5
b0 !
b0 $
b0 '
b0 %
b0 &
1"
#10
0"
0#
#15
b1 !
b1 $
b1 '
b10 %
b10 &
1"
#20
0"
#25
b10 !
b10 $
b10 '
b100 %
b100 &
1"
#30
0"
#35
b11 !
b11 $
b11 '
b110 %
b110 &
1"
#40
0"
#45
b100 !
b100 $
b100 '
b1000 %
b1000 &
1"
#50
0"
#55
b101 !
b101 $
b101 '
b1010 %
b1010 &
1"
#60
0"
#65
b110 !
b110 $
b110 '
b1100 %
b1100 &
1"
#70
0"
#75
b111 !
b111 $
b111 '
b1110 %
b1110 &
1"
#80
0"
#85
b1000 !
b1000 $
b1000 '
b10000 %
b10000 &
1"
#90
0"
#95
b1001 !
b1001 $
b1001 '
b10010 %
b10010 &
1"
#100
0"
#105
b1010 !
b1010 $
b1010 '
b10100 %
b10100 &
1"
#110
0"
#115
bx !
bx $
bx '
b10110 %
b10110 &
1"
#120
0"
#125
b11000 %
b11000 &
1"
#130
0"
#135
b11010 %
b11010 &
1"
#140
0"
#145
b11100 %
b11100 &
1"
#150
0"
#155
b11110 %
b11110 &
1"
#160
0"
#165
b100000 %
b100000 &
1"
#170
0"
#175
b100010 %
b100010 &
1"
#180
0"
#185
b100100 %
b100100 &
1"
#190
0"
#195
b100110 %
b100110 &
1"
#200
0"
#205
b101000 %
b101000 &
1"
