CPU/CPU.vcd
$date
	Sat Mar 07 18:20:15 2026
$end
$version
	Icarus Verilog
$end
$timescale
	1ns
$end
$scope module CPU_tb $end
$var reg 1 ! clk $end
$var reg 1 " reset $end
$scope module dut $end
$var wire 1 ! clk $end
$var wire 1 " reset $end
$var wire 16 # out [15:0] $end
$var wire 16 $ instruction [15:0] $end
$var wire 4 % flag [3:0] $end
$var wire 16 & b [15:0] $end
$var wire 16 ' a [15:0] $end
$scope module ALU $end
$var wire 4 ( opcode [3:0] $end
$var wire 16 ) out7 [15:0] $end
$var wire 16 * out6 [15:0] $end
$var wire 16 + out5 [15:0] $end
$var wire 16 , out4 [15:0] $end
$var wire 16 - out3 [15:0] $end
$var wire 16 . out2 [15:0] $end
$var wire 16 / out1 [15:0] $end
$var wire 4 0 flag [3:0] $end
$var wire 2 1 cout [1:0] $end
$var wire 16 2 b [15:0] $end
$var wire 16 3 a [15:0] $end
$var reg 16 4 out [15:0] $end
$scope module add16 $end
$var wire 1 5 cin $end
$var wire 16 6 s [15:0] $end
$var wire 1 7 cout $end
$var wire 16 8 b [15:0] $end
$var wire 16 9 a [15:0] $end
$scope module b0 $end
$var wire 4 : a [3:0] $end
$var wire 4 ; b [3:0] $end
$var wire 1 5 blockCin $end
$var wire 1 < blockCout $end
$var wire 1 = c1 $end
$var wire 1 > c2 $end
$var wire 1 ? c3 $end
$var wire 1 @ g0 $end
$var wire 1 A g1 $end
$var wire 1 B g2 $end
$var wire 1 C g3 $end
$var wire 1 D p0 $end
$var wire 1 E p1 $end
$var wire 1 F p2 $end
$var wire 1 G p3 $end
$var wire 4 H s [3:0] $end
$upscope $end
$scope module b1 $end
$var wire 4 I a [3:0] $end
$var wire 4 J b [3:0] $end
$var wire 1 < blockCin $end
$var wire 1 K blockCout $end
$var wire 1 L c1 $end
$var wire 1 M c2 $end
$var wire 1 N c3 $end
$var wire 1 O g0 $end
$var wire 1 P g1 $end
$var wire 1 Q g2 $end
$var wire 1 R g3 $end
$var wire 1 S p0 $end
$var wire 1 T p1 $end
$var wire 1 U p2 $end
$var wire 1 V p3 $end
$var wire 4 W s [3:0] $end
$upscope $end
$scope module b2 $end
$var wire 4 X a [3:0] $end
$var wire 4 Y b [3:0] $end
$var wire 1 K blockCin $end
$var wire 1 Z blockCout $end
$var wire 1 [ c1 $end
$var wire 1 \ c2 $end
$var wire 1 ] c3 $end
$var wire 1 ^ g0 $end
$var wire 1 _ g1 $end
$var wire 1 ` g2 $end
$var wire 1 a g3 $end
$var wire 1 b p0 $end
$var wire 1 c p1 $end
$var wire 1 d p2 $end
$var wire 1 e p3 $end
$var wire 4 f s [3:0] $end
$upscope $end
$scope module b3 $end
$var wire 4 g a [3:0] $end
$var wire 4 h b [3:0] $end
$var wire 1 Z blockCin $end
$var wire 1 7 blockCout $end
$var wire 1 i c1 $end
$var wire 1 j c2 $end
$var wire 1 k c3 $end
$var wire 1 l g0 $end
$var wire 1 m g1 $end
$var wire 1 n g2 $end
$var wire 1 o g3 $end
$var wire 1 p p0 $end
$var wire 1 q p1 $end
$var wire 1 r p2 $end
$var wire 1 s p3 $end
$var wire 4 t s [3:0] $end
$upscope $end
$upscope $end
$scope module and16 $end
$var wire 16 u out [15:0] $end
$var wire 16 v b [15:0] $end
$var wire 16 w a [15:0] $end
$upscope $end
$scope module const16 $end
$var wire 8 x a [7:0] $end
$var wire 16 y out [15:0] $end
$upscope $end
$scope module or16 $end
$var wire 16 z out [15:0] $end
$var wire 16 { b [15:0] $end
$var wire 16 | a [15:0] $end
$upscope $end
$scope module slu16 $end
$var wire 4 } shift [3:0] $end
$var wire 16 ~ out [15:0] $end
$var wire 16 !" a [15:0] $end
$scope module bit0 $end
$var wire 4 "" con [3:0] $end
$var wire 16 #" in [15:0] $end
$var wire 1 $" out $end
$upscope $end
$scope module bit1 $end
$var wire 4 %" con [3:0] $end
$var wire 16 &" in [15:0] $end
$var wire 1 '" out $end
$upscope $end
$scope module bit10 $end
$var wire 4 (" con [3:0] $end
$var wire 16 )" in [15:0] $end
$var wire 1 *" out $end
$upscope $end
$scope module bit11 $end
$var wire 4 +" con [3:0] $end
$var wire 16 ," in [15:0] $end
$var wire 1 -" out $end
$upscope $end
$scope module bit12 $end
$var wire 4 ." con [3:0] $end
$var wire 16 /" in [15:0] $end
$var wire 1 0" out $end
$upscope $end
$scope module bit13 $end
$var wire 4 1" con [3:0] $end
$var wire 16 2" in [15:0] $end
$var wire 1 3" out $end
$upscope $end
$scope module bit14 $end
$var wire 4 4" con [3:0] $end
$var wire 16 5" in [15:0] $end
$var wire 1 6" out $end
$upscope $end
$scope module bit15 $end
$var wire 4 7" con [3:0] $end
$var wire 16 8" in [15:0] $end
$var wire 1 9" out $end
$upscope $end
$scope module bit2 $end
$var wire 4 :" con [3:0] $end
$var wire 16 ;" in [15:0] $end
$var wire 1 <" out $end
$upscope $end
$scope module bit3 $end
$var wire 4 =" con [3:0] $end
$var wire 16 >" in [15:0] $end
$var wire 1 ?" out $end
$upscope $end
$scope module bit4 $end
$var wire 4 @" con [3:0] $end
$var wire 16 A" in [15:0] $end
$var wire 1 B" out $end
$upscope $end
$scope module bit5 $end
$var wire 4 C" con [3:0] $end
$var wire 16 D" in [15:0] $end
$var wire 1 E" out $end
$upscope $end
$scope module bit6 $end
$var wire 4 F" con [3:0] $end
$var wire 16 G" in [15:0] $end
$var wire 1 H" out $end
$upscope $end
$scope module bit7 $end
$var wire 4 I" con [3:0] $end
$var wire 16 J" in [15:0] $end
$var wire 1 K" out $end
$upscope $end
$scope module bit8 $end
$var wire 4 L" con [3:0] $end
$var wire 16 M" in [15:0] $end
$var wire 1 N" out $end
$upscope $end
$scope module bit9 $end
$var wire 4 O" con [3:0] $end
$var wire 16 P" in [15:0] $end
$var wire 1 Q" out $end
$upscope $end
$upscope $end
$scope module sru16 $end
$var wire 4 R" shift [3:0] $end
$var wire 16 S" out [15:0] $end
$var wire 16 T" a [15:0] $end
$scope module bit0 $end
$var wire 4 U" con [3:0] $end
$var wire 1 V" out $end
$var wire 16 W" in [15:0] $end
$upscope $end
$scope module bit1 $end
$var wire 4 X" con [3:0] $end
$var wire 16 Y" in [15:0] $end
$var wire 1 Z" out $end
$upscope $end
$scope module bit10 $end
$var wire 4 [" con [3:0] $end
$var wire 16 \" in [15:0] $end
$var wire 1 ]" out $end
$upscope $end
$scope module bit11 $end
$var wire 4 ^" con [3:0] $end
$var wire 16 _" in [15:0] $end
$var wire 1 `" out $end
$upscope $end
$scope module bit12 $end
$var wire 4 a" con [3:0] $end
$var wire 16 b" in [15:0] $end
$var wire 1 c" out $end
$upscope $end
$scope module bit13 $end
$var wire 4 d" con [3:0] $end
$var wire 16 e" in [15:0] $end
$var wire 1 f" out $end
$upscope $end
$scope module bit14 $end
$var wire 4 g" con [3:0] $end
$var wire 16 h" in [15:0] $end
$var wire 1 i" out $end
$upscope $end
$scope module bit15 $end
$var wire 4 j" con [3:0] $end
$var wire 16 k" in [15:0] $end
$var wire 1 l" out $end
$upscope $end
$scope module bit2 $end
$var wire 4 m" con [3:0] $end
$var wire 16 n" in [15:0] $end
$var wire 1 o" out $end
$upscope $end
$scope module bit3 $end
$var wire 4 p" con [3:0] $end
$var wire 16 q" in [15:0] $end
$var wire 1 r" out $end
$upscope $end
$scope module bit4 $end
$var wire 4 s" con [3:0] $end
$var wire 16 t" in [15:0] $end
$var wire 1 u" out $end
$upscope $end
$scope module bit5 $end
$var wire 4 v" con [3:0] $end
$var wire 16 w" in [15:0] $end
$var wire 1 x" out $end
$upscope $end
$scope module bit6 $end
$var wire 4 y" con [3:0] $end
$var wire 16 z" in [15:0] $end
$var wire 1 {" out $end
$upscope $end
$scope module bit7 $end
$var wire 4 |" con [3:0] $end
$var wire 16 }" in [15:0] $end
$var wire 1 ~" out $end
$upscope $end
$scope module bit8 $end
$var wire 4 !# con [3:0] $end
$var wire 16 "# in [15:0] $end
$var wire 1 ## out $end
$upscope $end
$scope module bit9 $end
$var wire 4 $# con [3:0] $end
$var wire 16 %# in [15:0] $end
$var wire 1 &# out $end
$upscope $end
$upscope $end
$scope module sub16 $end
$var wire 16 '# s [15:0] $end
$var wire 1 (# cout $end
$var wire 16 )# b [15:0] $end
$var wire 16 *# a [15:0] $end
$scope module adder $end
$var wire 16 +# b [15:0] $end
$var wire 1 ,# cin $end
$var wire 16 -# s [15:0] $end
$var wire 1 (# cout $end
$var wire 16 .# a [15:0] $end
$scope module b0 $end
$var wire 4 /# a [3:0] $end
$var wire 4 0# b [3:0] $end
$var wire 1 ,# blockCin $end
$var wire 1 1# blockCout $end
$var wire 1 2# c1 $end
$var wire 1 3# c2 $end
$var wire 1 4# c3 $end
$var wire 1 5# g0 $end
$var wire 1 6# g1 $end
$var wire 1 7# g2 $end
$var wire 1 8# g3 $end
$var wire 1 9# p0 $end
$var wire 1 :# p1 $end
$var wire 1 ;# p2 $end
$var wire 1 <# p3 $end
$var wire 4 =# s [3:0] $end
$upscope $end
$scope module b1 $end
$var wire 4 ># a [3:0] $end
$var wire 4 ?# b [3:0] $end
$var wire 1 1# blockCin $end
$var wire 1 @# blockCout $end
$var wire 1 A# c1 $end
$var wire 1 B# c2 $end
$var wire 1 C# c3 $end
$var wire 1 D# g0 $end
$var wire 1 E# g1 $end
$var wire 1 F# g2 $end
$var wire 1 G# g3 $end
$var wire 1 H# p0 $end
$var wire 1 I# p1 $end
$var wire 1 J# p2 $end
$var wire 1 K# p3 $end
$var wire 4 L# s [3:0] $end
$upscope $end
$scope module b2 $end
$var wire 4 M# a [3:0] $end
$var wire 4 N# b [3:0] $end
$var wire 1 @# blockCin $end
$var wire 1 O# blockCout $end
$var wire 1 P# c1 $end
$var wire 1 Q# c2 $end
$var wire 1 R# c3 $end
$var wire 1 S# g0 $end
$var wire 1 T# g1 $end
$var wire 1 U# g2 $end
$var wire 1 V# g3 $end
$var wire 1 W# p0 $end
$var wire 1 X# p1 $end
$var wire 1 Y# p2 $end
$var wire 1 Z# p3 $end
$var wire 4 [# s [3:0] $end
$upscope $end
$scope module b3 $end
$var wire 4 \# a [3:0] $end
$var wire 4 ]# b [3:0] $end
$var wire 1 O# blockCin $end
$var wire 1 (# blockCout $end
$var wire 1 ^# c1 $end
$var wire 1 _# c2 $end
$var wire 1 `# c3 $end
$var wire 1 a# g0 $end
$var wire 1 b# g1 $end
$var wire 1 c# g2 $end
$var wire 1 d# g3 $end
$var wire 1 e# p0 $end
$var wire 1 f# p1 $end
$var wire 1 g# p2 $end
$var wire 1 h# p3 $end
$var wire 4 i# s [3:0] $end
$upscope $end
$upscope $end
$upscope $end
$upscope $end
$scope module Control $end
$var wire 1 ! clk $end
$var wire 1 " reset $end
$var wire 16 j# instruction [15:0] $end
$var reg 16 k# address [15:0] $end
$scope module memory $end
$var wire 16 l# address [15:0] $end
$var reg 16 m# instruction [15:0] $end
$upscope $end
$upscope $end
$scope module Registerblock $end
$var wire 1 ! clk $end
$var wire 16 n# dataIn [15:0] $end
$var wire 4 o# dst [3:0] $end
$var wire 1 " reset $end
$var wire 4 p# source1 [3:0] $end
$var wire 4 q# source2 [3:0] $end
$var wire 1 r# we $end
$var reg 16 s# out1 [15:0] $end
$var reg 16 t# out2 [15:0] $end
$var reg 16 u# r0 [15:0] $end
$var reg 16 v# r1 [15:0] $end
$var reg 16 w# r10 [15:0] $end
$var reg 16 x# r11 [15:0] $end
$var reg 16 y# r12 [15:0] $end
$var reg 16 z# r13 [15:0] $end
$var reg 16 {# r14 [15:0] $end
$var reg 16 |# r15 [15:0] $end
$var reg 16 }# r2 [15:0] $end
$var reg 16 ~# r3 [15:0] $end
$var reg 16 !$ r4 [15:0] $end
$var reg 16 "$ r5 [15:0] $end
$var reg 16 #$ r6 [15:0] $end
$var reg 16 $$ r7 [15:0] $end
$var reg 16 %$ r8 [15:0] $end
$var reg 16 &$ r9 [15:0] $end
$upscope $end
$upscope $end
$upscope $end
$enddefinitions $end
#0
$dumpvars
bx &$
bx %$
bx $$
bx #$
bx "$
bx !$
bx ~#
bx }#
bx |#
bx {#
bx z#
bx y#
bx x#
bx w#
bx v#
bx u#
b0 t#
b0 s#
1r#
bx q#
bx p#
bx o#
b0 n#
bx m#
bx l#
bx k#
bx j#
b0 i#
1h#
1g#
1f#
1e#
0d#
0c#
0b#
0a#
1`#
1_#
1^#
b1111 ]#
b0 \#
b0 [#
1Z#
1Y#
1X#
1W#
0V#
0U#
0T#
0S#
1R#
1Q#
1P#
1O#
b1111 N#
b0 M#
b0 L#
1K#
1J#
1I#
1H#
0G#
0F#
0E#
0D#
1C#
1B#
1A#
1@#
b1111 ?#
b0 >#
b0 =#
1<#
1;#
1:#
19#
08#
07#
06#
05#
14#
13#
12#
11#
b1111 0#
b0 /#
b0 .#
b0 -#
1,#
b1111111111111111 +#
b0 *#
b0 )#
1(#
b0 '#
0&#
b0 %#
b0 $#
0##
b0 "#
b0 !#
0~"
b0 }"
b0 |"
0{"
b0 z"
b0 y"
0x"
b0 w"
b0 v"
0u"
b0 t"
b0 s"
0r"
b0 q"
b0 p"
0o"
b0 n"
b0 m"
0l"
b0 k"
b0 j"
0i"
b0 h"
b0 g"
0f"
b0 e"
b0 d"
0c"
b0 b"
b0 a"
0`"
b0 _"
b0 ^"
0]"
b0 \"
b0 ["
0Z"
b0 Y"
b0 X"
b0 W"
0V"
b0 U"
b0 T"
b0 S"
b0 R"
0Q"
b0 P"
b0 O"
0N"
b0 M"
b0 L"
0K"
b0 J"
b0 I"
0H"
b0 G"
b0 F"
0E"
b0 D"
b0 C"
0B"
b0 A"
b0 @"
0?"
b0 >"
b0 ="
0<"
b0 ;"
b0 :"
09"
b0 8"
b0 7"
06"
b0 5"
b0 4"
03"
b0 2"
b0 1"
00"
b0 /"
b0 ."
0-"
b0 ,"
b0 +"
0*"
b0 )"
b0 ("
0'"
b0 &"
b0 %"
0$"
b0 #"
b0 ""
b0 !"
b0 ~
b0 }
b0 |
b0 {
b0 z
b1 y
b1 x
b0 w
b0 v
b0 u
b0 t
0s
0r
0q
0p
0o
0n
0m
0l
0k
0j
0i
b0 h
b0 g
b0 f
0e
0d
0c
0b
0a
0`
0_
0^
0]
0\
0[
0Z
b0 Y
b0 X
b0 W
0V
0U
0T
0S
0R
0Q
0P
0O
0N
0M
0L
0K
b0 J
b0 I
b0 H
0G
0F
0E
0D
0C
0B
0A
0@
0?
0>
0=
0<
b0 ;
b0 :
b0 9
b0 8
07
b0 6
05
b0 4
b0 3
b0 2
b10 1
b1x0 0
b0 /
b0 .
b0 -
b0 ,
b0 +
b0 *
b1 )
bx (
b0 '
b0 &
b1x0 %
bx $
b0 #
1"
0!
$end
#5
b110 %
b110 0
b0 (
b0 q#
b0 p#
b0 o#
b0 $
b0 j#
b0 m#
b0 k#
b0 l#
b0 |#
b0 {#
b0 z#
b0 y#
b0 x#
b0 w#
b0 &$
b0 %$
b0 $$
b0 #$
b0 "$
b0 !$
b0 ~#
b0 }#
b0 v#
b0 u#
1!
#10
0!
#15
1!
#20
0!
0"
#25
b10 %
b10 0
b1 #
b1 4
b1 n#
b1000 (
b1000000000000000 $
b1000000000000000 j#
b1000000000000000 m#
b10 k#
b10 l#
1!
#30
0!
#35
12#
b10 /
b10 6
b10 H
b0 .
b0 '#
b0 -#
b0 =#
1=
19#
05#
1@
b1110 0#
b1111111111111110 +#
b1 ;
1'"
b1 }
b1 ""
b1 %"
b1 ("
b1 +"
b1 ."
b1 1"
b1 4"
b1 7"
b1 :"
b1 ="
b1 @"
b1 C"
b1 F"
b1 I"
b1 L"
b1 O"
b1 R"
b1 U"
b1 X"
b1 ["
b1 ^"
b1 a"
b1 d"
b1 g"
b1 j"
b1 m"
b1 p"
b1 s"
b1 v"
b1 y"
b1 |"
b1 !#
b1 $#
b1 /#
b1000000000000000 8"
b100000000000000 5"
b10000000000000 2"
b1000000000000 /"
b100000000000 ,"
b10000000000 )"
b1000000000 P"
b100000000 M"
b10000000 J"
b1000000 G"
b100000 D"
b10000 A"
b1000 >"
b100 ;"
b10 &"
b10 *
b10 ~
0$"
b1 #"
b1 ,
b1 z
b1 -
b1 u
b1 :
b1 o#
b1 &
b1 2
b1 8
b1 v
b1 {
b1 )#
b1 t#
b0 +
b0 S"
0V"
b1 '
b1 3
b1 9
b1 w
b1 |
b1 !"
b1 T"
b1 W"
b1 *#
b1 .#
b1 s#
b1000000100000000 $
b1000000100000000 j#
b1000000100000000 m#
b1 u#
b100 k#
b100 l#
1!
#40
0!
#45
b10 (
b1 q#
b10 o#
b10001000000001 $
b10001000000001 j#
b10001000000001 m#
b110 k#
b110 l#
b1 v#
1!
#50
0!
#55
b1 .
b1 '#
b1 -#
b1 =#
09#
15#
b1 /
b1 6
b1 H
0=
1D
0@
b1111 0#
b1111111111111111 +#
b0 -
b0 u
b0 ;
1$"
b1 *
b1 ~
0'"
b0 }
b0 ""
b0 %"
b0 ("
b0 +"
b0 ."
b0 1"
b0 4"
b0 7"
b0 :"
b0 ="
b0 @"
b0 C"
b0 F"
b0 I"
b0 L"
b0 O"
b1 +
b1 S"
1V"
b0 R"
b0 U"
b0 X"
b0 ["
b0 ^"
b0 a"
b0 d"
b0 g"
b0 j"
b0 m"
b0 p"
b0 s"
b0 v"
b0 y"
b0 |"
b0 !#
b0 $#
b1 #
b1 4
b1 n#
b0 &
b0 2
b0 8
b0 v
b0 {
b0 )#
b0 t#
b0 (
b100 q#
b0 o#
b100 $
b100 j#
b100 m#
b1 }#
b1000 k#
b1000 l#
1!
#60
0!
#65
b101 q#
b101 $
b101 j#
b101 m#
b1010 k#
b1010 l#
1!
#70
0!
#75
b110 q#
b110 $
b110 j#
b110 m#
b1100 k#
b1100 l#
1!
#80
0!
#85
b111 q#
b111 $
b111 j#
b111 m#
b1110 k#
b1110 l#
1!
#90
0!
#95
b1000 q#
b1000 $
b1000 j#
b1000 m#
b10000 k#
b10000 l#
1!
#100
0!
#105
b1001 q#
b1001 $
b1001 j#
b1001 m#
b10010 k#
b10010 l#
1!
#110
0!
#115
b1010 q#
b1010 $
b1010 j#
b1010 m#
b10100 k#
b10100 l#
1!
#120
0!
#125
b0 .
b0 '#
b0 -#
b0 =#
12#
b0 /
b0 6
b0 H
19#
05#
0D
b1x0 %
b1x0 0
b0 /#
b0 8"
b0 5"
b0 2"
b0 /"
b0 ,"
b0 )"
b0 P"
b0 M"
b0 J"
b0 G"
b0 D"
b0 A"
b0 >"
b0 ;"
b0 &"
b0 *
b0 ~
0$"
b0 #"
b0 ,
b0 z
b0 :
b0 #
b0 4
b0 n#
b0 +
b0 S"
0V"
b0 '
b0 3
b0 9
b0 w
b0 |
b0 !"
b0 T"
b0 W"
b0 *#
b0 .#
b0 s#
bx (
bx q#
bx p#
bx o#
bx $
bx j#
bx m#
b10110 k#
b10110 l#
1!
#130
0!
#135
b0 u#
b11000 k#
b11000 l#
1!
#140
0!
#145
b11010 k#
b11010 l#
1!
#150
0!
#155
b11100 k#
b11100 l#
1!
#160
0!
#165
b11110 k#
b11110 l#
1!
#170
0!
#175
b100000 k#
b100000 l#
1!
#180
0!
#185
b100010 k#
b100010 l#
1!
#190
0!
#195
b100100 k#
b100100 l#
1!
#200
0!
#205
b100110 k#
b100110 l#
1!
#210
0!
#215
b101000 k#
b101000 l#
1!
