CPU/Tests/CPU.vcd
$date
	Thu Apr 09 15:33:43 2026
$end
$version
	Icarus Verilog
$end
$timescale
	1s
$end
$scope module CPU_tb $end
$var reg 1 ! clk $end
$var reg 16 " instruction [15:0] $end
$scope module dut $end
$var wire 1 ! clk $end
$var wire 16 # instruction [15:0] $end
$var wire 4 $ localWriteBackDst [3:0] $end
$var wire 16 % localSrc2Data [15:0] $end
$var wire 16 & localSrc1Data [15:0] $end
$var wire 4 ' localOperation [3:0] $end
$var wire 8 ( localImmediateOperandOutput [7:0] $end
$var wire 1 ) localEnableWrite $end
$var wire 4 * localDstAddress [3:0] $end
$var wire 16 + localDataToStore [15:0] $end
$scope module decode $end
$var wire 1 ! clk $end
$var wire 4 , dstAddress [3:0] $end
$var wire 16 - instruction [15:0] $end
$var wire 4 . operation [3:0] $end
$var wire 4 / writeBackDst [3:0] $end
$var wire 16 0 src2Data [15:0] $end
$var wire 16 1 src1Data [15:0] $end
$var wire 4 2 localSrc2Address [3:0] $end
$var wire 4 3 localSrc1Address [3:0] $end
$var wire 4 4 localOperation [3:0] $end
$var wire 8 5 localImmediateOperand [7:0] $end
$var wire 4 6 localDstAddress [3:0] $end
$var wire 8 7 immediateOperandOutput [7:0] $end
$var wire 1 ) enableWrite $end
$var wire 16 8 dataToStore [15:0] $end
$scope module pipelineRegister $end
$var wire 1 ! clk $end
$var wire 16 9 instruction [15:0] $end
$var reg 4 : dstAddress [3:0] $end
$var reg 8 ; immediateOperand [7:0] $end
$var reg 4 < operation [3:0] $end
$var reg 4 = src1Address [3:0] $end
$var reg 4 > src2Address [3:0] $end
$upscope $end
$scope module registerBlock $end
$var wire 1 ! clk $end
$var wire 8 ? immediateOperandInput [7:0] $end
$var wire 4 @ src1Address [3:0] $end
$var wire 4 A src2Address [3:0] $end
$var wire 4 B writeBackDst [3:0] $end
$var wire 1 ) enableWrite $end
$var wire 16 C dataToStore [15:0] $end
$var reg 8 D immediateOperandOutput [7:0] $end
$var reg 16 E src1Data [15:0] $end
$var reg 16 F src2Data [15:0] $end
$upscope $end
$upscope $end
$scope module execute $end
$var wire 1 ! clk $end
$var wire 4 G dstAddressIn [3:0] $end
$var wire 8 H immediateOperandOutputIn [7:0] $end
$var wire 4 I operationIn [3:0] $end
$var wire 16 J src1DataIn [15:0] $end
$var wire 16 K src2DataIn [15:0] $end
$var wire 4 L writeBackDst [3:0] $end
$var wire 16 M result [15:0] $end
$var wire 16 N localSrc2Data [15:0] $end
$var wire 16 O localSrc1Data [15:0] $end
$var wire 4 P localOperation [3:0] $end
$var wire 8 Q localImmediateOperandOutput [7:0] $end
$var wire 4 R localDstAddress [3:0] $end
$var wire 1 ) enableWrite $end
$scope module alu $end
$var wire 1 ) enableWrite $end
$var wire 4 S operation [3:0] $end
$var wire 8 T immediateOperand [7:0] $end
$var wire 16 U data2 [15:0] $end
$var wire 16 V data1 [15:0] $end
$var wire 1 W cout $end
$var wire 16 X constOut [15:0] $end
$var wire 16 Y addOut [15:0] $end
$var reg 16 Z result [15:0] $end
$scope module add16 $end
$var wire 1 [ cin $end
$var wire 16 \ s [15:0] $end
$var wire 1 W cout $end
$var wire 16 ] b [15:0] $end
$var wire 16 ^ a [15:0] $end
$scope module b0 $end
$var wire 4 _ a [3:0] $end
$var wire 4 ` b [3:0] $end
$var wire 1 [ blockCin $end
$var wire 1 a blockCout $end
$var wire 1 b c1 $end
$var wire 1 c c2 $end
$var wire 1 d c3 $end
$var wire 1 e g0 $end
$var wire 1 f g1 $end
$var wire 1 g g2 $end
$var wire 1 h g3 $end
$var wire 1 i p0 $end
$var wire 1 j p1 $end
$var wire 1 k p2 $end
$var wire 1 l p3 $end
$var wire 4 m s [3:0] $end
$upscope $end
$scope module b1 $end
$var wire 4 n a [3:0] $end
$var wire 4 o b [3:0] $end
$var wire 1 a blockCin $end
$var wire 1 p blockCout $end
$var wire 1 q c1 $end
$var wire 1 r c2 $end
$var wire 1 s c3 $end
$var wire 1 t g0 $end
$var wire 1 u g1 $end
$var wire 1 v g2 $end
$var wire 1 w g3 $end
$var wire 1 x p0 $end
$var wire 1 y p1 $end
$var wire 1 z p2 $end
$var wire 1 { p3 $end
$var wire 4 | s [3:0] $end
$upscope $end
$scope module b2 $end
$var wire 4 } a [3:0] $end
$var wire 4 ~ b [3:0] $end
$var wire 1 p blockCin $end
$var wire 1 !" blockCout $end
$var wire 1 "" c1 $end
$var wire 1 #" c2 $end
$var wire 1 $" c3 $end
$var wire 1 %" g0 $end
$var wire 1 &" g1 $end
$var wire 1 '" g2 $end
$var wire 1 (" g3 $end
$var wire 1 )" p0 $end
$var wire 1 *" p1 $end
$var wire 1 +" p2 $end
$var wire 1 ," p3 $end
$var wire 4 -" s [3:0] $end
$upscope $end
$scope module b3 $end
$var wire 4 ." a [3:0] $end
$var wire 4 /" b [3:0] $end
$var wire 1 !" blockCin $end
$var wire 1 W blockCout $end
$var wire 1 0" c1 $end
$var wire 1 1" c2 $end
$var wire 1 2" c3 $end
$var wire 1 3" g0 $end
$var wire 1 4" g1 $end
$var wire 1 5" g2 $end
$var wire 1 6" g3 $end
$var wire 1 7" p0 $end
$var wire 1 8" p1 $end
$var wire 1 9" p2 $end
$var wire 1 :" p3 $end
$var wire 4 ;" s [3:0] $end
$upscope $end
$upscope $end
$scope module const16 $end
$var wire 16 <" out [15:0] $end
$var wire 8 =" a [7:0] $end
$upscope $end
$upscope $end
$scope module register $end
$var wire 1 ! clk $end
$var wire 4 >" dstAddressIn [3:0] $end
$var wire 8 ?" immediateOperandOutputIn [7:0] $end
$var wire 4 @" operationIn [3:0] $end
$var wire 16 A" src1DataIn [15:0] $end
$var wire 16 B" src2DataIn [15:0] $end
$var reg 4 C" dstAddress [3:0] $end
$var reg 8 D" immediateOperandOutput [7:0] $end
$var reg 4 E" operation [3:0] $end
$var reg 16 F" src1Data [15:0] $end
$var reg 16 G" src2Data [15:0] $end
$var reg 4 H" writeBackDst [3:0] $end
$upscope $end
$upscope $end
$upscope $end
$upscope $end
$enddefinitions $end
#0
$dumpvars
bx H"
bx G"
bx F"
bx E"
bx D"
bx C"
bx B"
bx A"
bx @"
bx ?"
bx >"
bx ="
bx <"
bx ;"
x:"
x9"
x8"
x7"
x6"
x5"
x4"
x3"
x2"
x1"
x0"
bx /"
bx ."
bx -"
x,"
x+"
x*"
x)"
x("
x'"
x&"
x%"
x$"
x#"
x""
x!"
bx ~
bx }
bx |
x{
xz
xy
xx
xw
xv
xu
xt
xs
xr
xq
xp
bx o
bx n
bx m
xl
xk
xj
xi
xh
xg
xf
xe
xd
xc
xb
xa
bx `
bx _
bx ^
bx ]
bx \
0[
b1010101111001101 Z
bx Y
bx X
xW
bx V
bx U
bx T
bx S
bx R
bx Q
bx P
bx O
bx N
b1010101111001101 M
bx L
bx K
bx J
bx I
bx H
bx G
bx F
bx E
bx D
b1010101111001101 C
bx B
bx A
bx @
bx ?
bx >
bx =
bx <
bx ;
bx :
bx 9
b1010101111001101 8
bx 7
bx 6
bx 5
bx 4
bx 3
bx 2
bx 1
bx 0
bx /
bx .
bx -
bx ,
b1010101111001101 +
bx *
x)
bx (
bx '
bx &
bx %
bx $
bx #
bx "
1!
$end
#2
0!
#4
1!
#5
b1000 "
b1000 #
b1000 -
b1000 9
#6
0!
#8
b1000 (
b1000 7
b1000 D
b1000 H
b1000 ?"
b1000 5
b1000 ;
b1000 ?
b1000 2
b1000 >
b1000 A
b0 3
b0 =
b0 @
b0 *
b0 ,
b0 G
b0 >"
b0 6
b0 :
b0 '
b0 .
b0 I
b0 @"
b0 4
b0 <
1!
#9
b100000010 "
b100000010 #
b100000010 -
b100000010 9
#10
0!
#12
1)
b1000 +
b1000 8
b1000 C
b1000 M
b1000 Z
b10 (
b10 7
b10 D
b10 H
b10 ?"
b0 $
b0 /
b0 B
b0 L
b0 H"
b1000 X
b1000 <"
b1000 Q
b1000 T
b1000 ="
b1000 D"
b0 R
b0 C"
b0 P
b0 S
b0 E"
b10 5
b10 ;
b10 ?
b10 2
b10 >
b10 A
b1 *
b1 ,
b1 G
b1 >"
b1 6
b1 :
1!
#13
b1111000000000000 "
b1111000000000000 #
b1111000000000000 -
b1111000000000000 9
#14
0!
#16
b0 (
b0 7
b0 D
b0 H
b0 ?"
b1000 %
b1000 0
b1000 F
b1000 K
b1000 B"
b1000 &
b1000 1
b1000 E
b1000 J
b1000 A"
b10 +
b10 8
b10 C
b10 M
b10 Z
b0 5
b0 ;
b0 ?
b0 2
b0 >
b0 A
b0 *
b0 ,
b0 G
b0 >"
b0 6
b0 :
b1111 '
b1111 .
b1111 I
b1111 @"
b1111 4
b1111 <
b1 $
b1 /
b1 B
b1 L
b1 H"
b10 X
b10 <"
b10 Q
b10 T
b10 ="
b10 D"
b1 R
b1 C"
1!
#17
b1001000000001 "
b1001000000001 #
b1001000000001 -
b1001000000001 9
#18
0!
#20
b0 ;"
02"
0W
01"
b0 -"
0$"
0!"
0#"
b1 |
0s
0p
0r
0d
1a
0c
00"
0""
0q
b10000 Y
b10000 \
b0 m
0b
07"
03"
08"
04"
09"
05"
0:"
06"
0)"
0%"
0*"
0&"
0+"
0'"
0,"
0("
0x
0t
0y
0u
0z
0v
0{
0w
0i
0e
0j
0f
0k
0g
0l
1h
0)
b0 /"
b0 ~
b0 o
b1000 `
b0 ."
b0 }
b0 n
b1000 _
bx +
bx 8
bx C
bx M
bx Z
b1 (
b1 7
b1 D
b1 H
b1 ?"
b10 %
b10 0
b10 F
b10 K
b10 B"
b0 $
b0 /
b0 B
b0 L
b0 H"
b0 X
b0 <"
b0 Q
b0 T
b0 ="
b0 D"
b1000 N
b1000 U
b1000 ]
b1000 G"
b1000 O
b1000 V
b1000 ^
b1000 F"
b0 R
b0 C"
b1111 P
b1111 S
b1111 E"
b1 5
b1 ;
b1 ?
b1 2
b1 >
b1 A
b10 *
b10 ,
b10 G
b10 >"
b10 6
b10 :
b1 '
b1 .
b1 I
b1 @"
b1 4
b1 <
1!
#21
bx "
bx #
bx -
bx 9
#22
0!
#24
b0 |
0a
b1010 Y
b1010 \
b1010 m
1)
1j
1l
0h
b10 `
bx (
bx 7
bx D
bx H
bx ?"
bx %
bx 0
bx F
bx K
bx B"
bx &
bx 1
bx E
bx J
bx A"
b1010 +
b1010 8
b1010 C
b1010 M
b1010 Z
bx 5
bx ;
bx ?
bx 2
bx >
bx A
bx 3
bx =
bx @
bx *
bx ,
bx G
bx >"
bx 6
bx :
bx '
bx .
bx I
bx @"
bx 4
bx <
b10 $
b10 /
b10 B
b10 L
b10 H"
b1 X
b1 <"
b1 Q
b1 T
b1 ="
b1 D"
b10 N
b10 U
b10 ]
b10 G"
b10 R
b10 C"
b1 P
b1 S
b1 E"
1!
#26
0!
#28
xW
x2"
x!"
x$"
xp
xs
xa
xd
x1"
x#"
xr
xc
x0"
bx ;"
x""
bx -"
xq
bx |
xb
bx Y
bx \
bx m
x7"
x3"
x8"
x4"
x9"
x5"
x:"
x6"
x)"
x%"
x*"
x&"
x+"
x'"
x,"
x("
xx
xt
xy
xu
xz
xv
x{
xw
xi
xe
xj
xf
xk
xg
xl
xh
x)
bx /"
bx ~
bx o
bx `
bx ."
bx }
bx n
bx _
b1010101111001101 +
b1010101111001101 8
b1010101111001101 C
b1010101111001101 M
b1010101111001101 Z
bx $
bx /
bx B
bx L
bx H"
bx X
bx <"
bx Q
bx T
bx ="
bx D"
bx N
bx U
bx ]
bx G"
bx O
bx V
bx ^
bx F"
bx R
bx C"
bx P
bx S
bx E"
1!
