CPU/Tests/CPU2.vcd
$date
	Thu Apr 09 15:58:34 2026
$end
$version
	Icarus Verilog
$end
$timescale
	1s
$end
$scope module CPU_tb2 $end
$var reg 1 ! clk $end
$var reg 1 " reset $end
$scope module dut $end
$var wire 1 ! clk $end
$var wire 1 " reset $end
$var wire 4 # localWriteBackDst [3:0] $end
$var wire 16 $ localSrc2Data [15:0] $end
$var wire 16 % localSrc1Data [15:0] $end
$var wire 4 & localOperation [3:0] $end
$var wire 8 ' localImmediateOperandOutput [7:0] $end
$var wire 1 ( localEnableWrite $end
$var wire 4 ) localDstAddress [3:0] $end
$var wire 16 * localDataToStore [15:0] $end
$var wire 16 + instruction [15:0] $end
$scope module decode $end
$var wire 1 ! clk $end
$var wire 4 , dstAddress [3:0] $end
$var wire 4 - operation [3:0] $end
$var wire 4 . writeBackDst [3:0] $end
$var wire 16 / src2Data [15:0] $end
$var wire 16 0 src1Data [15:0] $end
$var wire 4 1 localSrc2Address [3:0] $end
$var wire 4 2 localSrc1Address [3:0] $end
$var wire 4 3 localOperation [3:0] $end
$var wire 8 4 localImmediateOperand [7:0] $end
$var wire 4 5 localDstAddress [3:0] $end
$var wire 16 6 instruction [15:0] $end
$var wire 8 7 immediateOperandOutput [7:0] $end
$var wire 1 ( enableWrite $end
$var wire 16 8 dataToStore [15:0] $end
$scope module pipelineRegister $end
$var wire 1 ! clk $end
$var wire 16 9 instruction [15:0] $end
$var reg 4 : dstAddress [3:0] $end
$var reg 8 ; immediateOperand [7:0] $end
$var reg 4 < operation [3:0] $end
$var reg 4 = src1Address [3:0] $end
$var reg 4 > src2Address [3:0] $end
$upscope $end
$scope module registerBlock $end
$var wire 1 ! clk $end
$var wire 8 ? immediateOperandInput [7:0] $end
$var wire 4 @ src1Address [3:0] $end
$var wire 4 A src2Address [3:0] $end
$var wire 4 B writeBackDst [3:0] $end
$var wire 1 ( enableWrite $end
$var wire 16 C dataToStore [15:0] $end
$var reg 8 D immediateOperandOutput [7:0] $end
$var reg 16 E src1Data [15:0] $end
$var reg 16 F src2Data [15:0] $end
$upscope $end
$upscope $end
$scope module execute $end
$var wire 1 ! clk $end
$var wire 4 G dstAddressIn [3:0] $end
$var wire 8 H immediateOperandOutputIn [7:0] $end
$var wire 4 I operationIn [3:0] $end
$var wire 16 J src1DataIn [15:0] $end
$var wire 16 K src2DataIn [15:0] $end
$var wire 4 L writeBackDst [3:0] $end
$var wire 16 M result [15:0] $end
$var wire 16 N localSrc2Data [15:0] $end
$var wire 16 O localSrc1Data [15:0] $end
$var wire 4 P localOperation [3:0] $end
$var wire 8 Q localImmediateOperandOutput [7:0] $end
$var wire 4 R localDstAddress [3:0] $end
$var wire 1 ( enableWrite $end
$scope module alu $end
$var wire 1 ( enableWrite $end
$var wire 16 S xorOut [15:0] $end
$var wire 16 T subOut [15:0] $end
$var wire 1 U subCout $end
$var wire 16 V orOut [15:0] $end
$var wire 4 W operation [3:0] $end
$var wire 8 X immediateOperand [7:0] $end
$var wire 16 Y data2 [15:0] $end
$var wire 16 Z data1 [15:0] $end
$var wire 16 [ constOut [15:0] $end
$var wire 16 \ andOut [15:0] $end
$var wire 16 ] addOut [15:0] $end
$var wire 1 ^ addCout $end
$var reg 16 _ result [15:0] $end
$scope module add16 $end
$var wire 1 ` cin $end
$var wire 16 a s [15:0] $end
$var wire 1 ^ cout $end
$var wire 16 b b [15:0] $end
$var wire 16 c a [15:0] $end
$scope module b0 $end
$var wire 4 d a [3:0] $end
$var wire 4 e b [3:0] $end
$var wire 1 ` blockCin $end
$var wire 1 f blockCout $end
$var wire 1 g c1 $end
$var wire 1 h c2 $end
$var wire 1 i c3 $end
$var wire 1 j g0 $end
$var wire 1 k g1 $end
$var wire 1 l g2 $end
$var wire 1 m g3 $end
$var wire 1 n p0 $end
$var wire 1 o p1 $end
$var wire 1 p p2 $end
$var wire 1 q p3 $end
$var wire 4 r s [3:0] $end
$upscope $end
$scope module b1 $end
$var wire 4 s a [3:0] $end
$var wire 4 t b [3:0] $end
$var wire 1 f blockCin $end
$var wire 1 u blockCout $end
$var wire 1 v c1 $end
$var wire 1 w c2 $end
$var wire 1 x c3 $end
$var wire 1 y g0 $end
$var wire 1 z g1 $end
$var wire 1 { g2 $end
$var wire 1 | g3 $end
$var wire 1 } p0 $end
$var wire 1 ~ p1 $end
$var wire 1 !" p2 $end
$var wire 1 "" p3 $end
$var wire 4 #" s [3:0] $end
$upscope $end
$scope module b2 $end
$var wire 4 $" a [3:0] $end
$var wire 4 %" b [3:0] $end
$var wire 1 u blockCin $end
$var wire 1 &" blockCout $end
$var wire 1 '" c1 $end
$var wire 1 (" c2 $end
$var wire 1 )" c3 $end
$var wire 1 *" g0 $end
$var wire 1 +" g1 $end
$var wire 1 ," g2 $end
$var wire 1 -" g3 $end
$var wire 1 ." p0 $end
$var wire 1 /" p1 $end
$var wire 1 0" p2 $end
$var wire 1 1" p3 $end
$var wire 4 2" s [3:0] $end
$upscope $end
$scope module b3 $end
$var wire 4 3" a [3:0] $end
$var wire 4 4" b [3:0] $end
$var wire 1 &" blockCin $end
$var wire 1 ^ blockCout $end
$var wire 1 5" c1 $end
$var wire 1 6" c2 $end
$var wire 1 7" c3 $end
$var wire 1 8" g0 $end
$var wire 1 9" g1 $end
$var wire 1 :" g2 $end
$var wire 1 ;" g3 $end
$var wire 1 <" p0 $end
$var wire 1 =" p1 $end
$var wire 1 >" p2 $end
$var wire 1 ?" p3 $end
$var wire 4 @" s [3:0] $end
$upscope $end
$upscope $end
$scope module and16 $end
$var wire 16 A" out [15:0] $end
$var wire 16 B" b [15:0] $end
$var wire 16 C" a [15:0] $end
$upscope $end
$scope module const16 $end
$var wire 16 D" out [15:0] $end
$var wire 8 E" a [7:0] $end
$upscope $end
$scope module or16 $end
$var wire 16 F" out [15:0] $end
$var wire 16 G" b [15:0] $end
$var wire 16 H" a [15:0] $end
$upscope $end
$scope module sub16 $end
$var wire 16 I" b [15:0] $end
$var wire 1 J" cin $end
$var wire 16 K" s [15:0] $end
$var wire 1 U cout $end
$var wire 16 L" a [15:0] $end
$scope module b0 $end
$var wire 4 M" a [3:0] $end
$var wire 4 N" b [3:0] $end
$var wire 1 J" blockCin $end
$var wire 1 O" blockCout $end
$var wire 1 P" c1 $end
$var wire 1 Q" c2 $end
$var wire 1 R" c3 $end
$var wire 1 S" g0 $end
$var wire 1 T" g1 $end
$var wire 1 U" g2 $end
$var wire 1 V" g3 $end
$var wire 1 W" p0 $end
$var wire 1 X" p1 $end
$var wire 1 Y" p2 $end
$var wire 1 Z" p3 $end
$var wire 4 [" s [3:0] $end
$upscope $end
$scope module b1 $end
$var wire 4 \" a [3:0] $end
$var wire 4 ]" b [3:0] $end
$var wire 1 O" blockCin $end
$var wire 1 ^" blockCout $end
$var wire 1 _" c1 $end
$var wire 1 `" c2 $end
$var wire 1 a" c3 $end
$var wire 1 b" g0 $end
$var wire 1 c" g1 $end
$var wire 1 d" g2 $end
$var wire 1 e" g3 $end
$var wire 1 f" p0 $end
$var wire 1 g" p1 $end
$var wire 1 h" p2 $end
$var wire 1 i" p3 $end
$var wire 4 j" s [3:0] $end
$upscope $end
$scope module b2 $end
$var wire 4 k" a [3:0] $end
$var wire 4 l" b [3:0] $end
$var wire 1 ^" blockCin $end
$var wire 1 m" blockCout $end
$var wire 1 n" c1 $end
$var wire 1 o" c2 $end
$var wire 1 p" c3 $end
$var wire 1 q" g0 $end
$var wire 1 r" g1 $end
$var wire 1 s" g2 $end
$var wire 1 t" g3 $end
$var wire 1 u" p0 $end
$var wire 1 v" p1 $end
$var wire 1 w" p2 $end
$var wire 1 x" p3 $end
$var wire 4 y" s [3:0] $end
$upscope $end
$scope module b3 $end
$var wire 4 z" a [3:0] $end
$var wire 4 {" b [3:0] $end
$var wire 1 m" blockCin $end
$var wire 1 U blockCout $end
$var wire 1 |" c1 $end
$var wire 1 }" c2 $end
$var wire 1 ~" c3 $end
$var wire 1 !# g0 $end
$var wire 1 "# g1 $end
$var wire 1 ## g2 $end
$var wire 1 $# g3 $end
$var wire 1 %# p0 $end
$var wire 1 &# p1 $end
$var wire 1 '# p2 $end
$var wire 1 (# p3 $end
$var wire 4 )# s [3:0] $end
$upscope $end
$upscope $end
$scope module xor16 $end
$var wire 16 *# out [15:0] $end
$var wire 16 +# b [15:0] $end
$var wire 16 ,# a [15:0] $end
$upscope $end
$upscope $end
$scope module register $end
$var wire 1 ! clk $end
$var wire 4 -# dstAddressIn [3:0] $end
$var wire 8 .# immediateOperandOutputIn [7:0] $end
$var wire 4 /# operationIn [3:0] $end
$var wire 16 0# src1DataIn [15:0] $end
$var wire 16 1# src2DataIn [15:0] $end
$var reg 4 2# dstAddress [3:0] $end
$var reg 8 3# immediateOperandOutput [7:0] $end
$var reg 4 4# operation [3:0] $end
$var reg 16 5# src1Data [15:0] $end
$var reg 16 6# src2Data [15:0] $end
$var reg 4 7# writeBackDst [3:0] $end
$upscope $end
$upscope $end
$scope module fetch $end
$var wire 1 ! clk $end
$var wire 1 " reset $end
$var wire 16 8# instruction [15:0] $end
$var reg 16 9# address [15:0] $end
$scope module instructionMemory $end
$var wire 16 :# address [15:0] $end
$var reg 16 ;# instruction [15:0] $end
$upscope $end
$upscope $end
$upscope $end
$upscope $end
$enddefinitions $end
#0
$dumpvars
b1000 ;#
b0 :#
b0 9#
b1000 8#
bx 7#
bx 6#
bx 5#
bx 4#
bx 3#
bx 2#
bx 1#
bx 0#
bx /#
bx .#
bx -#
bx ,#
bx +#
bx *#
bx )#
x(#
x'#
x&#
x%#
x$#
x##
x"#
x!#
x~"
x}"
x|"
bx {"
bx z"
bx y"
xx"
xw"
xv"
xu"
xt"
xs"
xr"
xq"
xp"
xo"
xn"
xm"
bx l"
bx k"
bx j"
xi"
xh"
xg"
xf"
xe"
xd"
xc"
xb"
xa"
x`"
x_"
x^"
bx ]"
bx \"
bx ["
xZ"
xY"
xX"
xW"
xV"
xU"
xT"
xS"
xR"
xQ"
xP"
xO"
bx N"
bx M"
bx L"
bx K"
1J"
bx I"
bx H"
bx G"
bx F"
bx E"
bx D"
bx C"
bx B"
bx A"
bx @"
x?"
x>"
x="
x<"
x;"
x:"
x9"
x8"
x7"
x6"
x5"
bx 4"
bx 3"
bx 2"
x1"
x0"
x/"
x."
x-"
x,"
x+"
x*"
x)"
x("
x'"
x&"
bx %"
bx $"
bx #"
x""
x!"
x~
x}
x|
x{
xz
xy
xx
xw
xv
xu
bx t
bx s
bx r
xq
xp
xo
xn
xm
xl
xk
xj
xi
xh
xg
xf
bx e
bx d
bx c
bx b
bx a
0`
bx _
x^
bx ]
bx \
bx [
bx Z
bx Y
bx X
bx W
bx V
xU
bx T
bx S
bx R
bx Q
bx P
bx O
bx N
bx M
bx L
bx K
bx J
bx I
bx H
bx G
bx F
bx E
bx D
bx C
bx B
bx A
bx @
bx ?
bx >
bx =
bx <
bx ;
bx :
b1000 9
bx 8
bx 7
b1000 6
bx 5
bx 4
bx 3
bx 2
bx 1
bx 0
bx /
bx .
bx -
bx ,
b1000 +
bx *
bx )
x(
bx '
bx &
bx %
bx $
bx #
1"
1!
$end
#2
0!
#4
b1000 '
b1000 7
b1000 D
b1000 H
b1000 .#
b100000010 +
b100000010 6
b100000010 9
b100000010 8#
b100000010 ;#
b1000 4
b1000 ;
b1000 ?
b1000 1
b1000 >
b1000 A
b0 2
b0 =
b0 @
b0 )
b0 ,
b0 G
b0 -#
b0 5
b0 :
b0 &
b0 -
b0 I
b0 /#
b0 3
b0 <
b10 9#
b10 :#
1!
0"
#6
0!
#8
1(
b1111000000000000 +
b1111000000000000 6
b1111000000000000 9
b1111000000000000 8#
b1111000000000000 ;#
b10 '
b10 7
b10 D
b10 H
b10 .#
b1000 *
b1000 8
b1000 C
b1000 M
b1000 _
b100 9#
b100 :#
b10 4
b10 ;
b10 ?
b10 1
b10 >
b10 A
b1 )
b1 ,
b1 G
b1 -#
b1 5
b1 :
b0 #
b0 .
b0 B
b0 L
b0 7#
b1000 [
b1000 D"
b1000 Q
b1000 X
b1000 E"
b1000 3#
b0 R
b0 2#
b0 P
b0 W
b0 4#
1!
#10
0!
#12
b10 *
b10 8
b10 C
b10 M
b10 _
b0 '
b0 7
b0 D
b0 H
b0 .#
b1000 $
b1000 /
b1000 F
b1000 K
b1000 1#
b1000 %
b1000 0
b1000 E
b1000 J
b1000 0#
b1001000000001 +
b1001000000001 6
b1001000000001 9
b1001000000001 8#
b1001000000001 ;#
b1 #
b1 .
b1 B
b1 L
b1 7#
b10 [
b10 D"
b10 Q
b10 X
b10 E"
b10 3#
b1 R
b1 2#
b0 4
b0 ;
b0 ?
b0 1
b0 >
b0 A
b0 )
b0 ,
b0 G
b0 -#
b0 5
b0 :
b1111 &
b1111 -
b1111 I
b1111 /#
b1111 3
b1111 <
b110 9#
b110 :#
1!
#14
0!
#16
1|"
1}"
1~"
1U
b0 )#
1n"
1o"
1p"
1m"
b0 y"
1_"
1`"
1a"
1^"
b0 j"
1R"
1O"
1Q"
1P"
b0 @"
07"
0^
06"
b0 2"
0)"
0&"
0("
b1 #"
0x
0u
0w
0i
1f
0h
b0 T
b0 K"
b0 ["
05"
0'"
0v
1W"
1X"
1Y"
1Z"
0V"
1f"
1g"
1h"
1i"
1u"
1v"
1w"
1x"
1%#
1&#
1'#
1(#
b10000 ]
b10000 a
b0 r
0g
0!#
0"#
0##
0$#
0q"
0r"
0s"
0t"
0b"
0c"
0d"
0e"
0S"
0T"
0U"
0<"
08"
0="
09"
0>"
0:"
0?"
0;"
0."
0*"
0/"
0+"
00"
0,"
01"
0-"
0}
0y
0~
0z
0!"
0{
0""
0|
0n
0j
0o
0k
0p
0l
0q
1m
0(
b111 N"
b1111 ]"
b1111 l"
b1111 {"
b0 4"
b0 %"
b0 t
b1000 e
b1111111111110111 I"
b0 S
b0 *#
b0 z"
b0 k"
b0 \"
b1000 M"
b1000 V
b1000 F"
b1000 \
b1000 A"
b0 3"
b0 $"
b0 s
b1000 d
b1100000001 +
b1100000001 6
b1100000001 9
b1100000001 8#
b1100000001 ;#
b1 '
b1 7
b1 D
b1 H
b1 .#
b10 $
b10 /
b10 F
b10 K
b10 1#
bx *
bx 8
bx C
bx M
bx _
b1000 9#
b1000 :#
b1 4
b1 ;
b1 ?
b1 1
b1 >
b1 A
b10 )
b10 ,
b10 G
b10 -#
b10 5
b10 :
b1 &
b1 -
b1 I
b1 /#
b1 3
b1 <
b0 #
b0 .
b0 B
b0 L
b0 7#
b0 [
b0 D"
b0 Q
b0 X
b0 E"
b0 3#
b1000 N
b1000 Y
b1000 b
b1000 B"
b1000 G"
b1000 +#
b1000 6#
b1000 O
b1000 Z
b1000 c
b1000 C"
b1000 H"
b1000 L"
b1000 ,#
b1000 5#
b0 R
b0 2#
b1111 P
b1111 W
b1111 4#
1!
#18
0!
#20
b0 #"
0R"
0f
0Q"
b110 T
b110 K"
b110 ["
b1010 ]
b1010 a
b1010 r
0X"
0Z"
1V"
1(
1o
1q
0m
b1101 N"
b1010 S
b1010 *#
b1010 V
b1010 F"
b0 \
b0 A"
b10 e
b1111111111111101 I"
b1010 *
b1010 8
b1010 C
b1010 M
b1010 _
b1111000000000000 +
b1111000000000000 6
b1111000000000000 9
b1111000000000000 8#
b1111000000000000 ;#
b10 #
b10 .
b10 B
b10 L
b10 7#
b1 [
b1 D"
b1 Q
b1 X
b1 E"
b1 3#
b10 N
b10 Y
b10 b
b10 B"
b10 G"
b10 +#
b10 6#
b10 R
b10 2#
b1 P
b1 W
b1 4#
b11 )
b11 ,
b11 G
b11 -#
b11 5
b11 :
b0 &
b0 -
b0 I
b0 /#
b0 3
b0 <
b1010 9#
b1010 :#
1!
#22
0!
#24
b10010000100011 +
b10010000100011 6
b10010000100011 9
b10010000100011 8#
b10010000100011 ;#
b0 '
b0 7
b0 D
b0 H
b0 .#
b1000 $
b1000 /
b1000 F
b1000 K
b1000 1#
b1 *
b1 8
b1 C
b1 M
b1 _
b1100 9#
b1100 :#
b0 4
b0 ;
b0 ?
b0 1
b0 >
b0 A
b0 )
b0 ,
b0 G
b0 -#
b0 5
b0 :
b1111 &
b1111 -
b1111 I
b1111 /#
b1111 3
b1111 <
b11 #
b11 .
b11 B
b11 L
b11 7#
b11 R
b11 2#
b0 P
b0 W
b0 4#
1!
#26
0!
#28
b1 #"
1R"
1f
1Q"
b0 T
b0 K"
b0 ["
b10000 ]
b10000 a
b0 r
1X"
1Z"
0V"
0o
0q
1m
0(
b111 N"
b0 S
b0 *#
b1000 V
b1000 F"
b1000 \
b1000 A"
b1000 e
b1111111111110111 I"
bx *
bx 8
bx C
bx M
bx _
b100011 '
b100011 7
b100011 D
b100011 H
b100011 .#
b1 $
b1 /
b1 F
b1 K
b1 1#
b1010 %
b1010 0
b1010 E
b1010 J
b1010 0#
b1111000000000000 +
b1111000000000000 6
b1111000000000000 9
b1111000000000000 8#
b1111000000000000 ;#
b0 #
b0 .
b0 B
b0 L
b0 7#
b0 [
b0 D"
b0 Q
b0 X
b0 E"
b0 3#
b1000 N
b1000 Y
b1000 b
b1000 B"
b1000 G"
b1000 +#
b1000 6#
b0 R
b0 2#
b1111 P
b1111 W
b1111 4#
b100011 4
b100011 ;
b100011 ?
b11 1
b11 >
b11 A
b10 2
b10 =
b10 @
b100 )
b100 ,
b100 G
b100 -#
b100 5
b100 :
b10 &
b10 -
b10 I
b10 /#
b10 3
b10 <
b1110 9#
b1110 :#
1!
#30
0!
#32
b0 #"
0f
0P"
0W"
0Z"
1V"
b1001 T
b1001 K"
b1001 ["
b1011 ]
b1011 a
b1011 r
1n
1q
0m
0X"
1T"
1o
1(
b1110 N"
b1 e
b1111111111111110 I"
b1011 S
b1011 *#
b1010 M"
b1011 V
b1011 F"
b0 \
b0 A"
b1010 d
b0 '
b0 7
b0 D
b0 H
b0 .#
b1000 $
b1000 /
b1000 F
b1000 K
b1000 1#
b1000 %
b1000 0
b1000 E
b1000 J
b1000 0#
b1001 *
b1001 8
b1001 C
b1001 M
b1001 _
b10000 9#
b10000 :#
b0 4
b0 ;
b0 ?
b0 1
b0 >
b0 A
b0 2
b0 =
b0 @
b0 )
b0 ,
b0 G
b0 -#
b0 5
b0 :
b1111 &
b1111 -
b1111 I
b1111 /#
b1111 3
b1111 <
b100 #
b100 .
b100 B
b100 L
b100 7#
b100011 [
b100011 D"
b100011 Q
b100011 X
b100011 E"
b100011 3#
b1 N
b1 Y
b1 b
b1 B"
b1 G"
b1 +#
b1 6#
b1010 O
b1010 Z
b1010 c
b1010 C"
b1010 H"
b1010 L"
b1010 ,#
b1010 5#
b100 R
b100 2#
b10 P
b10 W
b10 4#
1!
#34
0!
#36
1|"
1}"
1~"
1U
b0 )#
1n"
1o"
1p"
1m"
b0 y"
1_"
1`"
1a"
1^"
b0 j"
b1 #"
1O"
1f
1P"
1Q"
0(
1W"
1Z"
0V"
b0 T
b0 K"
b0 ["
b10000 ]
b10000 a
b0 r
0n
0q
1m
1X"
0T"
0o
b111 N"
b1000 e
b1111111111110111 I"
b0 S
b0 *#
b1000 M"
b1000 V
b1000 F"
b1000 \
b1000 A"
b1000 d
bx *
bx 8
bx C
bx M
bx _
b0 #
b0 .
b0 B
b0 L
b0 7#
b0 [
b0 D"
b0 Q
b0 X
b0 E"
b0 3#
b1000 N
b1000 Y
b1000 b
b1000 B"
b1000 G"
b1000 +#
b1000 6#
b1000 O
b1000 Z
b1000 c
b1000 C"
b1000 H"
b1000 L"
b1000 ,#
b1000 5#
b0 R
b0 2#
b1111 P
b1111 W
b1111 4#
b10010 9#
b10010 :#
1!
#38
0!
#40
b10100 9#
b10100 :#
1!
#42
0!
#44
b10110 9#
b10110 :#
1!
