old_version/DECODE/Tests/Decode.vcd
$date
	Sun May 31 11:27:54 2026
$end
$version
	Icarus Verilog
$end
$timescale
	1ns
$end
$scope module Decode_tb $end
$var wire 4 ! outOperation [3:0] $end
$var wire 16 " outInstructionAddress [15:0] $end
$var wire 8 # outImmediate [7:0] $end
$var wire 4 $ outDstAddress [3:0] $end
$var wire 4 % outData2Address [3:0] $end
$var wire 16 & outData2 [15:0] $end
$var wire 4 ' outData1Address [3:0] $end
$var wire 16 ( outData1 [15:0] $end
$var reg 1 ) clk $end
$var reg 16 * inDataResultSkippy [15:0] $end
$var reg 1 + inDataResultSkippySignal $end
$var reg 16 , inDataToStore [15:0] $end
$var reg 16 - inInstruction [15:0] $end
$var reg 16 . inInstructionAddress [15:0] $end
$var reg 4 / inWriteBackDstAddress [3:0] $end
$var reg 1 0 inWriteToRegisterEnable $end
$scope module dut $end
$var wire 1 ) clk $end
$var wire 16 1 inDataResultSkippy [15:0] $end
$var wire 1 + inDataResultSkippySignal $end
$var wire 16 2 inDataToStore [15:0] $end
$var wire 16 3 inInstruction [15:0] $end
$var wire 16 4 inInstructionAddress [15:0] $end
$var wire 4 5 inWriteBackDstAddress [3:0] $end
$var wire 1 0 inWriteToRegisterEnable $end
$var wire 4 6 outData1Address [3:0] $end
$var wire 4 7 outData2Address [3:0] $end
$var wire 4 8 outDstAddress [3:0] $end
$var wire 4 9 outOperation [3:0] $end
$var wire 16 : outInstructionAddress [15:0] $end
$var wire 8 ; outImmediate [7:0] $end
$var wire 16 < outData2 [15:0] $end
$var wire 16 = outData1 [15:0] $end
$var wire 4 > localOperation [3:0] $end
$var wire 8 ? localImmediate [7:0] $end
$var wire 4 @ localDstAddress [3:0] $end
$var wire 4 A localData2Address [3:0] $end
$var wire 4 B localData1Address [3:0] $end
$scope module pipelineRegister $end
$var wire 1 ) clk $end
$var wire 16 C inInstruction [15:0] $end
$var wire 16 D inInstructionAddress [15:0] $end
$var reg 4 E outData1Address [3:0] $end
$var reg 4 F outData2Address [3:0] $end
$var reg 4 G outDstAddress [3:0] $end
$var reg 8 H outImmediate [7:0] $end
$var reg 16 I outInstructionAddress [15:0] $end
$var reg 4 J outOperation [3:0] $end
$upscope $end
$scope module registerBlock $end
$var wire 1 ) clk $end
$var wire 4 K inData1Address [3:0] $end
$var wire 4 L inData2Address [3:0] $end
$var wire 16 M inDataResultSkippy [15:0] $end
$var wire 1 + inDataResultSkippySignal $end
$var wire 16 N inDataToStore [15:0] $end
$var wire 4 O inDstAddress [3:0] $end
$var wire 8 P inImmediate [7:0] $end
$var wire 4 Q inOperation [3:0] $end
$var wire 4 R inWriteBackDstAddress [3:0] $end
$var wire 1 0 inWriteToRegisterEnable $end
$var reg 16 S outData1 [15:0] $end
$var reg 16 T outData2 [15:0] $end
$var reg 8 U outImmediate [7:0] $end
$upscope $end
$upscope $end
$upscope $end
$enddefinitions $end
#0
$dumpvars
bx U
bx T
bx S
b0 R
bx Q
bx P
bx O
b1010 N
bx M
bx L
bx K
bx J
bx I
bx H
bx G
bx F
bx E
bx D
b1010 C
bx B
bx A
bx @
bx ?
bx >
bx =
bx <
bx ;
bx :
bx 9
bx 8
bx 7
bx 6
b0 5
bx 4
b1010 3
b1010 2
bx 1
10
b0 /
bx .
b1010 -
b1010 ,
x+
bx *
0)
bx (
bx '
bx &
bx %
bx $
bx #
bx "
bx !
$end
#2
b1010 #
b1010 ;
b1010 U
b1010 &
b1010 <
b1010 T
b1010 (
b1010 =
b1010 S
b1010 ?
b1010 H
b1010 P
b1010 %
b1010 7
b1010 A
b1010 F
b1010 L
b0 '
b0 6
b0 B
b0 E
b0 K
b0 $
b0 8
b0 @
b0 G
b0 O
b0 !
b0 9
b0 >
b0 J
b0 Q
1)
#4
0)
b1 /
b1 5
b1 R
b1011 ,
b1011 2
b1011 N
b100001010 -
b100001010 3
b100001010 C
#6
b1 $
b1 8
b1 @
b1 G
b1 O
1)
#8
0)
b11 /
b11 5
b11 R
b0 ,
b0 2
b0 N
b1001000000001 -
b1001000000001 3
b1001000000001 C
#10
b1 #
b1 ;
b1 U
b1 ?
b1 H
b1 P
b1 %
b1 7
b1 A
b1 F
b1 L
b10 $
b10 8
b10 @
b10 G
b10 O
b1 !
b1 9
b1 >
b1 J
b1 Q
1)
#12
0)
b1001001111111111 -
b1001001111111111 3
b1001001111111111 C
#14
b0 (
b0 =
b0 S
b11111111 ?
b11111111 H
b11111111 P
b1111 %
b1111 7
b1111 A
b1111 F
b1111 L
b1111 '
b1111 6
b1111 B
b1111 E
b1111 K
b11 $
b11 8
b11 @
b11 G
b11 O
b1001 !
b1001 9
b1001 >
b1001 J
b1001 Q
1)
#16
0)
b1010000000000010 -
b1010000000000010 3
b1010000000000010 C
#18
b10 #
b10 ;
b10 U
bx &
bx <
bx T
b1010 (
b1010 =
b1010 S
b10 ?
b10 H
b10 P
b10 %
b10 7
b10 A
b10 F
b10 L
b0 '
b0 6
b0 B
b0 E
b0 K
b0 $
b0 8
b0 @
b0 G
b0 O
b1010 !
b1010 9
b1010 >
b1010 J
b1010 Q
1)
