CONTROL/Tests/Control.vcd
$date
	Sun May 03 20:03:16 2026
$end
$version
	Icarus Verilog
$end
$timescale
	1ns
$end
$scope module Control_tb $end
$var wire 4 ! controlSignals [3:0] $end
$var reg 1 " clk $end
$var reg 1 # holdSignalFromALU $end
$var reg 1 $ jumpSignalFromALU $end
$var reg 1 % reset $end
$scope module dut $end
$var wire 1 " clk $end
$var wire 1 # holdSignalFromALU $end
$var wire 1 $ jumpSignalFromALU $end
$var wire 1 % reset $end
$var reg 4 & controlSignals [3:0] $end
$var reg 3 ' nextState [2:0] $end
$var reg 3 ( state [2:0] $end
$upscope $end
$upscope $end
$enddefinitions $end
#0
$dumpvars
bx (
bx '
bx &
1%
x$
x#
0"
bx !
$end
#2
b0 !
b0 &
b100 '
b11 (
1"
#4
0"
1#
0%
#6
b100 !
b100 &
b0 '
b100 (
1"
#8
0"
0#
#10
b0 !
b0 &
b0 (
1"
#12
b10 '
0"
1$
#14
b0 '
b10 (
1"
