CONTROL/Tests/ControlUnit.vcd
$date
	Sat May 16 15:10:02 2026
$end
$version
	Icarus Verilog
$end
$timescale
	1ns
$end
$scope module ControlUnit_tb $end
$var wire 1 ! resetSigFromControl $end
$var wire 16 " outInstructionAddress [15:0] $end
$var wire 1 # holdSigFromControl $end
$var reg 1 $ changeToNewInstructionAddress $end
$var reg 1 % clk $end
$var reg 1 & holdSignalFromALU $end
$var reg 16 ' inNewInstructionAddress [15:0] $end
$var reg 1 ( reset $end
$scope module dut $end
$var wire 1 $ changeToNewInstructionAddress $end
$var wire 1 % clk $end
$var wire 1 & holdSignalFromALU $end
$var wire 16 ) inNewInstructionAddress [15:0] $end
$var wire 16 * outInstructionAddress [15:0] $end
$var wire 1 ( reset $end
$var reg 16 + currentInstructionAddress [15:0] $end
$var reg 3 , currentState [2:0] $end
$var reg 1 # holdSigFromControl $end
$var reg 3 - nextState [2:0] $end
$var reg 1 ! resetSigFromControl $end
$upscope $end
$upscope $end
$enddefinitions $end
#0
$dumpvars
bx -
bx ,
bx +
bx *
bx )
1(
bx '
x&
0%
x$
x#
bx "
x!
$end
#2
1!
0#
b1 -
b0 ,
b0 "
b0 *
b0 +
1%
#4
0%
0(
#6
0!
b10 -
b1 ,
1%
#8
0%
1&
#10
b11 -
b10 "
b10 *
b10 +
b10 ,
1%
#12
0%
#14
1#
b11 ,
1%
#16
b100 -
0%
b0 '
b0 )
1$
0&
#18
b10 -
b0 "
b0 *
b0 +
b100 ,
1%
#20
0%
0$
#22
0#
b10 "
b10 *
b10 +
b10 ,
1%
